EESchema Schematic File Version 2
LIBS:Fruits_Activs
LIBS:Fruits_Passivs
LIBS:power
LIBS:device
LIBS:transistors
LIBS:conn
LIBS:linear
LIBS:regul
LIBS:74xx
LIBS:cmos4000
LIBS:adc-dac
LIBS:memory
LIBS:xilinx
LIBS:microcontrollers
LIBS:dsp
LIBS:microchip
LIBS:analog_switches
LIBS:motorola
LIBS:texas
LIBS:intel
LIBS:audio
LIBS:interface
LIBS:digital-audio
LIBS:philips
LIBS:display
LIBS:cypress
LIBS:siliconi
LIBS:opto
LIBS:atmel
LIBS:contrib
LIBS:valves
LIBS:Fruits_ICs
LIBS:fpc_con
LIBS:Konnektoren
LIBS:ptsa
LIBS:schraubverbindung
LIBS:DCDC_Converter
LIBS:Strawberry-cache
EELAYER 25 0
EELAYER END
$Descr A0 46811 33110
encoding utf-8
Sheet 1 1
Title ""
Date ""
Rev ""
Comp ""
Comment1 ""
Comment2 ""
Comment3 ""
Comment4 ""
$EndDescr
$Comp
L PYB10 U1
U 1 1 57C91EFF
P 14450 11500
F 0 "U1" H 14450 11050 60  0000 C CNN
F 1 "PYB10" H 14450 11900 60  0000 C CNN
F 2 "Fruits_DCDC_Converter:PYB10" H 14450 11500 60  0001 C CNN
F 3 "" H 14450 11500 60  0000 C CNN
	1    14450 11500
	1    0    0    -1  
$EndComp
Wire Wire Line
	13900 11250 13800 11250
Wire Wire Line
	13800 11250 13800 10950
Wire Wire Line
	13900 11750 13800 11750
Wire Wire Line
	13800 11750 13800 11850
$Comp
L GNDPWR #PWR01
U 1 1 57C92131
P 13800 11850
F 0 "#PWR01" H 13800 11650 50  0001 C CNN
F 1 "GNDPWR" H 13800 11720 50  0000 C CNN
F 2 "" H 13800 11800 50  0000 C CNN
F 3 "" H 13800 11800 50  0000 C CNN
	1    13800 11850
	1    0    0    -1  
$EndComp
$Comp
L Schraubverbindung J3
U 1 1 57C92203
P 13500 11050
F 0 "J3" H 13500 10950 60  0000 C CNN
F 1 "Schraubverbindung" H 13500 11350 60  0001 C CNN
F 2 "Fruits_PCBCons:M2.5" H 13500 11050 60  0001 C CNN
F 3 "" H 13500 11050 60  0000 C CNN
	1    13500 11050
	-1   0    0    1   
$EndComp
Wire Wire Line
	13500 10950 13500 11050
$Comp
L GNDPWR #PWR02
U 1 1 57C9246B
P 13200 11150
F 0 "#PWR02" H 13200 10950 50  0001 C CNN
F 1 "GNDPWR" H 13200 11020 50  0000 C CNN
F 2 "" H 13200 11100 50  0000 C CNN
F 3 "" H 13200 11100 50  0000 C CNN
	1    13200 11150
	1    0    0    -1  
$EndComp
Wire Wire Line
	13200 11150 13200 11050
$Comp
L Schraubverbindung J2
U 1 1 57C9248A
P 13200 11050
F 0 "J2" H 13200 10950 60  0000 C CNN
F 1 "Schraubverbindung" H 13200 11350 60  0001 C CNN
F 2 "Fruits_PCBCons:M2.5" H 13200 11050 60  0001 C CNN
F 3 "" H 13200 11050 60  0000 C CNN
	1    13200 11050
	1    0    0    -1  
$EndComp
Wire Notes Line
	13000 11350 13000 10700
Wire Notes Line
	13000 10700 13650 10700
Wire Notes Line
	13650 10700 13650 11350
Wire Notes Line
	13650 11350 13000 11350
Text Notes 12900 10700 0    60   ~ 0
Schraubanschlüsse
Wire Wire Line
	15000 11250 16050 11250
Wire Wire Line
	15000 11750 15100 11750
Wire Wire Line
	15100 11750 15100 11950
$Comp
L GND #PWR03
U 1 1 57C92693
P 15100 11950
F 0 "#PWR03" H 15100 11700 50  0001 C CNN
F 1 "GND" H 15100 11800 50  0000 C CNN
F 2 "" H 15100 11950 50  0000 C CNN
F 3 "" H 15100 11950 50  0000 C CNN
	1    15100 11950
	1    0    0    -1  
$EndComp
$Comp
L PYB30 U2
U 1 1 57C929A3
P 20350 7450
F 0 "U2" H 20350 7000 60  0000 C CNN
F 1 "PYB30" H 20350 7850 60  0000 C CNN
F 2 "Fruits_DCDC_Converter:PYB30" H 20350 7450 60  0001 C CNN
F 3 "" H 20350 7450 60  0000 C CNN
	1    20350 7450
	1    0    0    -1  
$EndComp
Wire Wire Line
	19800 7200 19700 7200
Wire Wire Line
	19700 7200 19700 6900
Wire Wire Line
	19800 7700 19700 7700
Wire Wire Line
	19700 7700 19700 7800
$Comp
L GNDPWR #PWR04
U 1 1 57C92A81
P 19700 7800
F 0 "#PWR04" H 19700 7600 50  0001 C CNN
F 1 "GNDPWR" H 19700 7670 50  0000 C CNN
F 2 "" H 19700 7750 50  0000 C CNN
F 3 "" H 19700 7750 50  0000 C CNN
	1    19700 7800
	1    0    0    -1  
$EndComp
Wire Wire Line
	21000 7200 20900 7200
Wire Wire Line
	21000 7100 21000 7200
$Comp
L +15V #PWR05
U 1 1 57C92B43
P 21000 7100
F 0 "#PWR05" H 21000 6950 50  0001 C CNN
F 1 "+15V" H 21000 7240 50  0000 C CNN
F 2 "" H 21000 7100 50  0000 C CNN
F 3 "" H 21000 7100 50  0000 C CNN
	1    21000 7100
	1    0    0    -1  
$EndComp
Wire Wire Line
	20900 7700 21000 7700
Wire Wire Line
	21000 7700 21000 7800
$Comp
L GNDD #PWR06
U 1 1 57C92B7D
P 21000 7800
F 0 "#PWR06" H 21000 7550 50  0001 C CNN
F 1 "GNDD" H 21000 7650 50  0000 C CNN
F 2 "" H 21000 7800 50  0000 C CNN
F 3 "" H 21000 7800 50  0000 C CNN
	1    21000 7800
	1    0    0    -1  
$EndComp
NoConn ~ 20900 7450
NoConn ~ 20900 7550
NoConn ~ 19800 7450
NoConn ~ 15000 11500
NoConn ~ 13900 11500
Wire Wire Line
	13250 15250 13900 15250
Wire Wire Line
	13350 15450 13250 15450
Wire Wire Line
	13350 15550 13250 15550
Connection ~ 13350 15450
Wire Wire Line
	13350 15650 13250 15650
Connection ~ 13350 15550
Wire Wire Line
	13350 15750 13250 15750
Connection ~ 13350 15650
Wire Wire Line
	13350 15850 13250 15850
Connection ~ 13350 15750
Wire Wire Line
	13350 15350 13350 15850
Wire Wire Line
	13250 15950 13450 15950
Connection ~ 13350 15350
$Comp
L Ferrite L1
U 1 1 57C93356
P 13900 15950
F 0 "L1" H 13900 15800 60  0000 C CNN
F 1 "470r@100MHz" H 13900 16100 60  0000 C CNN
F 2 "Fruits_Passivs:0805_m" H 13900 15950 60  0001 C CNN
F 3 "" H 13900 15950 60  0000 C CNN
	1    13900 15950
	1    0    0    -1  
$EndComp
Wire Wire Line
	14350 15950 14500 15950
$Comp
L C C2
U 1 1 57C9356F
P 14800 15700
F 0 "C2" H 14900 15550 60  0000 C CNN
F 1 "1uF" H 14800 15850 60  0000 C CNN
F 2 "Fruits_Passivs:0805_m" H 14800 15700 60  0001 C CNN
F 3 "" H 14800 15700 60  0000 C CNN
	1    14800 15700
	0    1    1    0   
$EndComp
$Comp
L C C4
U 1 1 57C93682
P 15200 15700
F 0 "C4" H 15300 15550 60  0000 C CNN
F 1 "0.1uF" H 15200 15850 60  0000 C CNN
F 2 "Fruits_Passivs:0805_m" H 15200 15700 60  0001 C CNN
F 3 "" H 15200 15700 60  0000 C CNN
	1    15200 15700
	0    1    1    0   
$EndComp
Wire Wire Line
	14800 15350 14800 15450
Wire Wire Line
	15200 15350 15200 15450
Connection ~ 14800 15350
Wire Wire Line
	14800 15950 14800 16050
Wire Wire Line
	15200 16050 15200 15950
Wire Wire Line
	15000 16050 15000 16150
Connection ~ 15000 16050
$Comp
L GND #PWR07
U 1 1 57C93972
P 15000 16150
F 0 "#PWR07" H 15000 15900 50  0001 C CNN
F 1 "GND" H 15000 16000 50  0000 C CNN
F 2 "" H 15000 16150 50  0000 C CNN
F 3 "" H 15000 16150 50  0000 C CNN
	1    15000 16150
	1    0    0    -1  
$EndComp
Wire Wire Line
	14500 15350 14500 16300
Connection ~ 14500 15350
Wire Wire Line
	13250 16050 13400 16050
Wire Wire Line
	13400 16050 13400 16300
Wire Wire Line
	13400 16300 13450 16300
Wire Wire Line
	14500 16300 14350 16300
Connection ~ 14500 15950
Text Label 13300 15950 0    60   ~ 0
VDDPLL
Text Label 13300 16050 0    60   ~ 0
VDDUTMIC
Connection ~ 15200 15350
$Comp
L C C8
U 1 1 57C945CB
P 15600 15700
F 0 "C8" H 15700 15550 60  0000 C CNN
F 1 "0.1uF" H 15600 15850 60  0000 C CNN
F 2 "Fruits_Passivs:0805_m" H 15600 15700 60  0001 C CNN
F 3 "" H 15600 15700 60  0000 C CNN
	1    15600 15700
	0    1    1    0   
$EndComp
$Comp
L C C10
U 1 1 57C94607
P 16000 15700
F 0 "C10" H 16100 15550 60  0000 C CNN
F 1 "0.1uF" H 16000 15850 60  0000 C CNN
F 2 "Fruits_Passivs:0805_m" H 16000 15700 60  0001 C CNN
F 3 "" H 16000 15700 60  0000 C CNN
	1    16000 15700
	0    1    1    0   
$EndComp
$Comp
L C C12
U 1 1 57C94642
P 16400 15700
F 0 "C12" H 16500 15550 60  0000 C CNN
F 1 "0.1uF" H 16400 15850 60  0000 C CNN
F 2 "Fruits_Passivs:0805_m" H 16400 15700 60  0001 C CNN
F 3 "" H 16400 15700 60  0000 C CNN
	1    16400 15700
	0    1    1    0   
$EndComp
$Comp
L C C14
U 1 1 57C94682
P 16800 15700
F 0 "C14" H 16900 15550 60  0000 C CNN
F 1 "0.1uF" H 16800 15850 60  0000 C CNN
F 2 "Fruits_Passivs:0805_m" H 16800 15700 60  0001 C CNN
F 3 "" H 16800 15700 60  0000 C CNN
	1    16800 15700
	0    1    1    0   
$EndComp
$Comp
L C C16
U 1 1 57C946C3
P 17200 15700
F 0 "C16" H 17300 15550 60  0000 C CNN
F 1 "0.1uF" H 17200 15850 60  0000 C CNN
F 2 "Fruits_Passivs:0805_m" H 17200 15700 60  0001 C CNN
F 3 "" H 17200 15700 60  0000 C CNN
	1    17200 15700
	0    1    1    0   
$EndComp
Wire Wire Line
	15600 15350 15600 15450
Connection ~ 15600 15350
Wire Wire Line
	16000 15350 16000 15450
Connection ~ 16000 15350
Wire Wire Line
	16400 15350 16400 15450
Connection ~ 16400 15350
Wire Wire Line
	16800 15350 16800 15450
Connection ~ 16800 15350
Wire Wire Line
	17200 15350 17200 15450
Wire Wire Line
	17200 16050 17200 15950
Connection ~ 15200 16050
Wire Wire Line
	16800 16050 16800 15950
Connection ~ 16800 16050
Wire Wire Line
	16400 16050 16400 15950
Connection ~ 16400 16050
Wire Wire Line
	14800 16050 17200 16050
Wire Wire Line
	15600 16050 15600 15950
Wire Wire Line
	16000 16050 16000 15950
Connection ~ 15600 16050
Connection ~ 16000 16050
Wire Wire Line
	14800 16450 14800 16600
$Comp
L C C3
U 1 1 57C95833
P 14800 16850
F 0 "C3" H 14900 16700 60  0000 C CNN
F 1 "0.1uF" H 14800 17000 60  0000 C CNN
F 2 "Fruits_Passivs:0805_m" H 14800 16850 60  0001 C CNN
F 3 "" H 14800 16850 60  0000 C CNN
	1    14800 16850
	0    1    1    0   
$EndComp
Wire Wire Line
	14800 17100 14800 17300
$Comp
L GND #PWR08
U 1 1 57C95957
P 14800 17300
F 0 "#PWR08" H 14800 17050 50  0001 C CNN
F 1 "GND" H 14800 17150 50  0000 C CNN
F 2 "" H 14800 17300 50  0000 C CNN
F 3 "" H 14800 17300 50  0000 C CNN
	1    14800 17300
	1    0    0    -1  
$EndComp
Wire Wire Line
	15300 16450 15300 16600
$Comp
L C C5
U 1 1 57C959EC
P 15300 16850
F 0 "C5" H 15400 16700 60  0000 C CNN
F 1 "0.1uF" H 15300 17000 60  0000 C CNN
F 2 "Fruits_Passivs:0805_m" H 15300 16850 60  0001 C CNN
F 3 "" H 15300 16850 60  0000 C CNN
	1    15300 16850
	0    1    1    0   
$EndComp
Wire Wire Line
	15300 17100 15300 17300
$Comp
L GND #PWR09
U 1 1 57C95A9D
P 15300 17300
F 0 "#PWR09" H 15300 17050 50  0001 C CNN
F 1 "GND" H 15300 17150 50  0000 C CNN
F 2 "" H 15300 17300 50  0000 C CNN
F 3 "" H 15300 17300 50  0000 C CNN
	1    15300 17300
	1    0    0    -1  
$EndComp
$Comp
L +3.3V #PWR010
U 1 1 57C96C38
P 13900 15250
F 0 "#PWR010" H 13900 15100 50  0001 C CNN
F 1 "+3.3V" H 13900 15390 50  0000 C CNN
F 2 "" H 13900 15250 50  0000 C CNN
F 3 "" H 13900 15250 50  0000 C CNN
	1    13900 15250
	0    1    1    0   
$EndComp
Wire Wire Line
	13250 14750 13350 14750
Wire Wire Line
	13350 14750 13350 15250
Connection ~ 13350 15250
Wire Wire Line
	13250 15150 13350 15150
Connection ~ 13350 15150
Wire Wire Line
	13250 15050 13350 15050
Connection ~ 13350 15050
Wire Wire Line
	13250 14950 13350 14950
Connection ~ 13350 14950
Wire Wire Line
	13250 14850 13350 14850
Connection ~ 13350 14850
$Comp
L Induktion I1
U 1 1 57C97B91
P 13850 14600
F 0 "I1" H 13850 14500 60  0000 C CNN
F 1 "10uH-60mA" H 13850 14750 60  0000 C CNN
F 2 "Fruits_Passivs:0805" H 13850 14600 60  0001 C CNN
F 3 "" H 13850 14600 60  0000 C CNN
	1    13850 14600
	1    0    0    -1  
$EndComp
Wire Wire Line
	13250 14600 13450 14600
Wire Wire Line
	14250 14600 14350 14600
$Comp
L R R1
U 1 1 57C9803D
P 14650 14600
F 0 "R1" H 14750 14500 60  0000 C CNN
F 1 "R" H 14650 14700 60  0000 C CNN
F 2 "Fruits_Passivs:0805_m" H 14650 14600 60  0001 C CNN
F 3 "" H 14650 14600 60  0000 C CNN
	1    14650 14600
	1    0    0    -1  
$EndComp
Wire Wire Line
	14950 14600 15050 14600
$Comp
L +3.3V #PWR011
U 1 1 57C983CB
P 15050 14600
F 0 "#PWR011" H 15050 14450 50  0001 C CNN
F 1 "+3.3V" H 15050 14740 50  0000 C CNN
F 2 "" H 15050 14600 50  0000 C CNN
F 3 "" H 15050 14600 50  0000 C CNN
	1    15050 14600
	0    1    1    0   
$EndComp
$Comp
L C C7
U 1 1 57C99324
P 15600 14900
F 0 "C7" H 15700 14750 60  0000 C CNN
F 1 "0.1uF" H 15600 15050 60  0000 C CNN
F 2 "Fruits_Passivs:0805_m" H 15600 14900 60  0001 C CNN
F 3 "" H 15600 14900 60  0000 C CNN
	1    15600 14900
	0    1    1    0   
$EndComp
$Comp
L C C9
U 1 1 57C9932A
P 16000 14900
F 0 "C9" H 16100 14750 60  0000 C CNN
F 1 "0.1uF" H 16000 15050 60  0000 C CNN
F 2 "Fruits_Passivs:0805_m" H 16000 14900 60  0001 C CNN
F 3 "" H 16000 14900 60  0000 C CNN
	1    16000 14900
	0    1    1    0   
$EndComp
$Comp
L C C11
U 1 1 57C99330
P 16400 14900
F 0 "C11" H 16500 14750 60  0000 C CNN
F 1 "0.1uF" H 16400 15050 60  0000 C CNN
F 2 "Fruits_Passivs:0805_m" H 16400 14900 60  0001 C CNN
F 3 "" H 16400 14900 60  0000 C CNN
	1    16400 14900
	0    1    1    0   
$EndComp
$Comp
L C C13
U 1 1 57C99336
P 16800 14900
F 0 "C13" H 16900 14750 60  0000 C CNN
F 1 "0.1uF" H 16800 15050 60  0000 C CNN
F 2 "Fruits_Passivs:0805_m" H 16800 14900 60  0001 C CNN
F 3 "" H 16800 14900 60  0000 C CNN
	1    16800 14900
	0    1    1    0   
$EndComp
$Comp
L C C15
U 1 1 57C9933C
P 17200 14900
F 0 "C15" H 17300 14750 60  0000 C CNN
F 1 "0.1uF" H 17200 15050 60  0000 C CNN
F 2 "Fruits_Passivs:0805_m" H 17200 14900 60  0001 C CNN
F 3 "" H 17200 14900 60  0000 C CNN
	1    17200 14900
	0    1    1    0   
$EndComp
Wire Wire Line
	17200 14550 17200 14650
Wire Wire Line
	15600 14550 17550 14550
Wire Wire Line
	16800 14550 16800 14650
Wire Wire Line
	16400 14550 16400 14650
Connection ~ 16800 14550
Wire Wire Line
	16000 14550 16000 14650
Connection ~ 16400 14550
Wire Wire Line
	15600 14550 15600 14650
Connection ~ 16000 14550
Wire Wire Line
	17200 15250 17200 15150
Wire Wire Line
	15600 15250 17550 15250
Wire Wire Line
	16800 15250 16800 15150
Wire Wire Line
	16400 15250 16400 15150
Connection ~ 16800 15250
Wire Wire Line
	16000 15250 16000 15150
Connection ~ 16400 15250
Wire Wire Line
	15600 15250 15600 15150
Connection ~ 16000 15250
Wire Wire Line
	13250 15350 17200 15350
Wire Wire Line
	17550 15250 17550 15400
Connection ~ 17200 15250
$Comp
L GND #PWR012
U 1 1 57C9AB25
P 17550 15400
F 0 "#PWR012" H 17550 15150 50  0001 C CNN
F 1 "GND" H 17550 15250 50  0000 C CNN
F 2 "" H 17550 15400 50  0000 C CNN
F 3 "" H 17550 15400 50  0000 C CNN
	1    17550 15400
	1    0    0    -1  
$EndComp
Wire Wire Line
	17550 14550 17550 14450
Connection ~ 17200 14550
Text Label 13350 14950 0    60   ~ 0
VDDIO
Text Label 17550 14450 0    60   ~ 0
VDDIO
Wire Wire Line
	13600 14450 13250 14450
Wire Wire Line
	13600 13700 13600 14450
$Comp
L +3.3V #PWR013
U 1 1 57C9DADD
P 13600 13700
F 0 "#PWR013" H 13600 13550 50  0001 C CNN
F 1 "+3.3V" H 13600 13840 50  0000 C CNN
F 2 "" H 13600 13700 50  0000 C CNN
F 3 "" H 13600 13700 50  0000 C CNN
	1    13600 13700
	1    0    0    -1  
$EndComp
Connection ~ 13600 13800
$Comp
L C C1
U 1 1 57C9E249
P 14300 14100
F 0 "C1" H 14400 13950 60  0000 C CNN
F 1 "0.1uF" H 14300 14250 60  0000 C CNN
F 2 "Fruits_Passivs:0805_m" H 14300 14100 60  0001 C CNN
F 3 "" H 14300 14100 60  0000 C CNN
	1    14300 14100
	0    1    1    0   
$EndComp
Wire Wire Line
	14300 13800 14300 13850
Wire Wire Line
	13600 13800 14300 13800
$Comp
L GND #PWR014
U 1 1 57C9E48B
P 14300 14450
F 0 "#PWR014" H 14300 14200 50  0001 C CNN
F 1 "GND" H 14300 14300 50  0000 C CNN
F 2 "" H 14300 14450 50  0000 C CNN
F 3 "" H 14300 14450 50  0000 C CNN
	1    14300 14450
	1    0    0    -1  
$EndComp
Wire Wire Line
	14300 14350 14300 14450
$Comp
L C C6
U 1 1 57CA0B86
P 15350 11600
F 0 "C6" H 15450 11450 60  0000 C CNN
F 1 "0.1uF" H 15350 11750 60  0000 C CNN
F 2 "Fruits_Passivs:0805_m" H 15350 11600 60  0001 C CNN
F 3 "" H 15350 11600 60  0000 C CNN
	1    15350 11600
	0    1    1    0   
$EndComp
Wire Wire Line
	15350 11250 15350 11350
Connection ~ 15350 11250
Wire Wire Line
	15350 11850 15350 11950
$Comp
L GND #PWR015
U 1 1 57CA0F46
P 15350 11950
F 0 "#PWR015" H 15350 11700 50  0001 C CNN
F 1 "GND" H 15350 11800 50  0000 C CNN
F 2 "" H 15350 11950 50  0000 C CNN
F 3 "" H 15350 11950 50  0000 C CNN
	1    15350 11950
	1    0    0    -1  
$EndComp
$Comp
L Ferrite L2
U 1 1 57CA203B
P 13900 16300
F 0 "L2" H 13900 16150 60  0000 C CNN
F 1 "470r@100MHz" H 13900 16450 60  0000 C CNN
F 2 "Fruits_Passivs:0805_m" H 13900 16300 60  0001 C CNN
F 3 "" H 13900 16300 60  0000 C CNN
	1    13900 16300
	1    0    0    -1  
$EndComp
Wire Wire Line
	13250 16850 13350 16850
Wire Wire Line
	13350 16850 13350 17450
Wire Wire Line
	13250 16950 13350 16950
Connection ~ 13350 16950
Wire Wire Line
	13250 17050 13350 17050
Connection ~ 13350 17050
Wire Wire Line
	13250 17150 13350 17150
Connection ~ 13350 17150
Wire Wire Line
	13250 17250 13350 17250
Connection ~ 13350 17250
Wire Wire Line
	13250 17350 13350 17350
Connection ~ 13350 17350
$Comp
L GND #PWR016
U 1 1 57CA39B0
P 13350 17450
F 0 "#PWR016" H 13350 17200 50  0001 C CNN
F 1 "GND" H 13350 17300 50  0000 C CNN
F 2 "" H 13350 17450 50  0000 C CNN
F 3 "" H 13350 17450 50  0000 C CNN
	1    13350 17450
	1    0    0    -1  
$EndComp
$Comp
L Optokoppler IC2
U 1 1 57CA60DB
P 20450 11800
F 0 "IC2" H 20450 11450 60  0000 C CNN
F 1 "Optokoppler" H 20450 12150 60  0000 C CNN
F 2 "Fruits_ICs:Optokoppler" H 20450 11800 60  0001 C CNN
F 3 "" H 20450 11800 60  0000 C CNN
	1    20450 11800
	1    0    0    -1  
$EndComp
$Comp
L Optokoppler IC3
U 1 1 57CA6236
P 20450 12700
F 0 "IC3" H 20450 12350 60  0000 C CNN
F 1 "Optokoppler" H 20450 13050 60  0000 C CNN
F 2 "Fruits_ICs:Optokoppler" H 20450 12700 60  0001 C CNN
F 3 "" H 20450 12700 60  0000 C CNN
	1    20450 12700
	1    0    0    -1  
$EndComp
$Comp
L Optokoppler IC4
U 1 1 57CA6456
P 20450 13600
F 0 "IC4" H 20450 13250 60  0000 C CNN
F 1 "Optokoppler" H 20450 13950 60  0000 C CNN
F 2 "Fruits_ICs:Optokoppler" H 20450 13600 60  0001 C CNN
F 3 "" H 20450 13600 60  0000 C CNN
	1    20450 13600
	1    0    0    -1  
$EndComp
$Comp
L Optokoppler IC5
U 1 1 57CA64E2
P 20450 14550
F 0 "IC5" H 20450 14200 60  0000 C CNN
F 1 "Optokoppler" H 20450 14900 60  0000 C CNN
F 2 "Fruits_ICs:Optokoppler" H 20450 14550 60  0001 C CNN
F 3 "" H 20450 14550 60  0000 C CNN
	1    20450 14550
	1    0    0    -1  
$EndComp
$Comp
L Optokoppler IC6
U 1 1 57CA6B51
P 20450 15500
F 0 "IC6" H 20450 15150 60  0000 C CNN
F 1 "Optokoppler" H 20450 15850 60  0000 C CNN
F 2 "Fruits_ICs:Optokoppler" H 20450 15500 60  0001 C CNN
F 3 "" H 20450 15500 60  0000 C CNN
	1    20450 15500
	1    0    0    -1  
$EndComp
$Comp
L Optokoppler IC7
U 1 1 57CA6BF9
P 20450 16450
F 0 "IC7" H 20450 16100 60  0000 C CNN
F 1 "Optokoppler" H 20450 16800 60  0000 C CNN
F 2 "Fruits_ICs:Optokoppler" H 20450 16450 60  0001 C CNN
F 3 "" H 20450 16450 60  0000 C CNN
	1    20450 16450
	1    0    0    -1  
$EndComp
Wire Wire Line
	19900 11600 19800 11600
$Comp
L R R2
U 1 1 57CA87B3
P 19500 11600
F 0 "R2" H 19600 11500 60  0000 C CNN
F 1 "R" H 19500 11700 60  0000 C CNN
F 2 "Fruits_Passivs:0805_m" H 19500 11600 60  0001 C CNN
F 3 "" H 19500 11600 60  0000 C CNN
	1    19500 11600
	1    0    0    -1  
$EndComp
Wire Wire Line
	19200 11600 19100 11600
Wire Wire Line
	19900 12500 19800 12500
$Comp
L R R3
U 1 1 57CA8E41
P 19500 12500
F 0 "R3" H 19600 12400 60  0000 C CNN
F 1 "R" H 19500 12600 60  0000 C CNN
F 2 "Fruits_Passivs:0805_m" H 19500 12500 60  0001 C CNN
F 3 "" H 19500 12500 60  0000 C CNN
	1    19500 12500
	1    0    0    -1  
$EndComp
Wire Wire Line
	19200 12500 19100 12500
Wire Wire Line
	19900 13400 19800 13400
$Comp
L R R4
U 1 1 57CA916A
P 19500 13400
F 0 "R4" H 19600 13300 60  0000 C CNN
F 1 "R" H 19500 13500 60  0000 C CNN
F 2 "Fruits_Passivs:0805_m" H 19500 13400 60  0001 C CNN
F 3 "" H 19500 13400 60  0000 C CNN
	1    19500 13400
	1    0    0    -1  
$EndComp
Wire Wire Line
	19200 13400 19100 13400
Wire Wire Line
	19900 14350 19800 14350
$Comp
L R R5
U 1 1 57CA920B
P 19500 14350
F 0 "R5" H 19600 14250 60  0000 C CNN
F 1 "R" H 19500 14450 60  0000 C CNN
F 2 "Fruits_Passivs:0805_m" H 19500 14350 60  0001 C CNN
F 3 "" H 19500 14350 60  0000 C CNN
	1    19500 14350
	1    0    0    -1  
$EndComp
Wire Wire Line
	19200 14350 19100 14350
Wire Wire Line
	19900 16250 19800 16250
$Comp
L R R7
U 1 1 57CA95B5
P 19500 16250
F 0 "R7" H 19600 16150 60  0000 C CNN
F 1 "R" H 19500 16350 60  0000 C CNN
F 2 "Fruits_Passivs:0805_m" H 19500 16250 60  0001 C CNN
F 3 "" H 19500 16250 60  0000 C CNN
	1    19500 16250
	1    0    0    -1  
$EndComp
Wire Wire Line
	19200 16250 19100 16250
Wire Wire Line
	19900 15300 19800 15300
$Comp
L R R6
U 1 1 57CA98E5
P 19500 15300
F 0 "R6" H 19600 15200 60  0000 C CNN
F 1 "R" H 19500 15400 60  0000 C CNN
F 2 "Fruits_Passivs:0805_m" H 19500 15300 60  0001 C CNN
F 3 "" H 19500 15300 60  0000 C CNN
	1    19500 15300
	1    0    0    -1  
$EndComp
Wire Wire Line
	19200 15300 19100 15300
Wire Wire Line
	19900 12000 19800 12000
Wire Wire Line
	19800 12000 19800 12100
$Comp
L GND #PWR017
U 1 1 57CAAAB5
P 19800 12100
F 0 "#PWR017" H 19800 11850 50  0001 C CNN
F 1 "GND" H 19800 11950 50  0000 C CNN
F 2 "" H 19800 12100 50  0000 C CNN
F 3 "" H 19800 12100 50  0000 C CNN
	1    19800 12100
	1    0    0    -1  
$EndComp
Wire Wire Line
	19900 12900 19800 12900
Wire Wire Line
	19800 12900 19800 13000
$Comp
L GND #PWR018
U 1 1 57CAAE5F
P 19800 13000
F 0 "#PWR018" H 19800 12750 50  0001 C CNN
F 1 "GND" H 19800 12850 50  0000 C CNN
F 2 "" H 19800 13000 50  0000 C CNN
F 3 "" H 19800 13000 50  0000 C CNN
	1    19800 13000
	1    0    0    -1  
$EndComp
Wire Wire Line
	19900 13800 19800 13800
Wire Wire Line
	19800 13800 19800 13900
$Comp
L GND #PWR019
U 1 1 57CAAE8E
P 19800 13900
F 0 "#PWR019" H 19800 13650 50  0001 C CNN
F 1 "GND" H 19800 13750 50  0000 C CNN
F 2 "" H 19800 13900 50  0000 C CNN
F 3 "" H 19800 13900 50  0000 C CNN
	1    19800 13900
	1    0    0    -1  
$EndComp
Wire Wire Line
	19900 14750 19800 14750
Wire Wire Line
	19800 14750 19800 14850
$Comp
L GND #PWR020
U 1 1 57CAB78E
P 19800 14850
F 0 "#PWR020" H 19800 14600 50  0001 C CNN
F 1 "GND" H 19800 14700 50  0000 C CNN
F 2 "" H 19800 14850 50  0000 C CNN
F 3 "" H 19800 14850 50  0000 C CNN
	1    19800 14850
	1    0    0    -1  
$EndComp
Wire Wire Line
	19900 15700 19800 15700
Wire Wire Line
	19800 15700 19800 15800
$Comp
L GND #PWR021
U 1 1 57CABEAD
P 19800 15800
F 0 "#PWR021" H 19800 15550 50  0001 C CNN
F 1 "GND" H 19800 15650 50  0000 C CNN
F 2 "" H 19800 15800 50  0000 C CNN
F 3 "" H 19800 15800 50  0000 C CNN
	1    19800 15800
	1    0    0    -1  
$EndComp
Wire Wire Line
	19900 16650 19800 16650
Wire Wire Line
	19800 16650 19800 16750
$Comp
L GND #PWR022
U 1 1 57CAC4D5
P 19800 16750
F 0 "#PWR022" H 19800 16500 50  0001 C CNN
F 1 "GND" H 19800 16600 50  0000 C CNN
F 2 "" H 19800 16750 50  0000 C CNN
F 3 "" H 19800 16750 50  0000 C CNN
	1    19800 16750
	1    0    0    -1  
$EndComp
Text Label 19100 11600 0    60   ~ 0
UH_uC
Text Label 19100 12500 0    60   ~ 0
UL_uC
Text Label 19100 13400 0    60   ~ 0
VH_uC
Text Label 19100 14350 0    60   ~ 0
VL_uC
Text Label 19100 15300 0    60   ~ 0
WH_uC
Text Label 19100 16250 0    60   ~ 0
WL_uC
$Comp
L FAN73933 IC9
U 1 1 57CAFF03
P 24600 11700
F 0 "IC9" H 24600 11300 60  0000 C CNN
F 1 "FAN73933" H 24600 12100 60  0000 C CNN
F 2 "Fruits_ICs:FAN73933" H 24600 11500 60  0001 C CNN
F 3 "" H 24600 11500 60  0000 C CNN
	1    24600 11700
	1    0    0    -1  
$EndComp
Wire Wire Line
	21000 11600 21100 11600
Wire Wire Line
	21100 11600 21100 11500
Wire Wire Line
	21000 12000 21150 12000
Wire Wire Line
	21000 12500 21100 12500
Wire Wire Line
	21100 12500 21100 12400
Wire Wire Line
	21000 12900 21150 12900
Wire Wire Line
	21000 13400 21100 13400
Wire Wire Line
	21100 13400 21100 13300
Wire Wire Line
	21000 13800 21150 13800
Wire Wire Line
	21000 14350 21100 14350
Wire Wire Line
	21100 14350 21100 14250
Wire Wire Line
	21000 14750 21150 14750
Wire Wire Line
	21100 15300 21000 15300
Wire Wire Line
	21100 15200 21100 15300
Wire Wire Line
	21000 15700 21150 15700
Wire Wire Line
	21000 16250 21100 16250
Wire Wire Line
	21100 16250 21100 16150
Wire Wire Line
	21000 16650 21150 16650
Text Label 21150 12000 0    60   ~ 0
UH_opt_iso
Text Label 21150 12900 0    60   ~ 0
UL_opt_iso
Text Label 21150 13800 0    60   ~ 0
VH_opt_iso
Text Label 21150 14750 0    60   ~ 0
VL_opt_iso
Text Label 21150 15700 0    60   ~ 0
WH_opt_iso
Text Label 21150 16650 0    60   ~ 0
WL_opt_iso
$Comp
L +15V #PWR023
U 1 1 57CB5AFC
P 21100 11500
F 0 "#PWR023" H 21100 11350 50  0001 C CNN
F 1 "+15V" H 21100 11640 50  0000 C CNN
F 2 "" H 21100 11500 50  0000 C CNN
F 3 "" H 21100 11500 50  0000 C CNN
	1    21100 11500
	1    0    0    -1  
$EndComp
$Comp
L +15V #PWR024
U 1 1 57CB5DFF
P 21100 12400
F 0 "#PWR024" H 21100 12250 50  0001 C CNN
F 1 "+15V" H 21100 12540 50  0000 C CNN
F 2 "" H 21100 12400 50  0000 C CNN
F 3 "" H 21100 12400 50  0000 C CNN
	1    21100 12400
	1    0    0    -1  
$EndComp
$Comp
L +15V #PWR025
U 1 1 57CB621A
P 21100 13300
F 0 "#PWR025" H 21100 13150 50  0001 C CNN
F 1 "+15V" H 21100 13440 50  0000 C CNN
F 2 "" H 21100 13300 50  0000 C CNN
F 3 "" H 21100 13300 50  0000 C CNN
	1    21100 13300
	1    0    0    -1  
$EndComp
$Comp
L +15V #PWR026
U 1 1 57CB629D
P 21100 14250
F 0 "#PWR026" H 21100 14100 50  0001 C CNN
F 1 "+15V" H 21100 14390 50  0000 C CNN
F 2 "" H 21100 14250 50  0000 C CNN
F 3 "" H 21100 14250 50  0000 C CNN
	1    21100 14250
	1    0    0    -1  
$EndComp
$Comp
L +15V #PWR027
U 1 1 57CB65C8
P 21100 15200
F 0 "#PWR027" H 21100 15050 50  0001 C CNN
F 1 "+15V" H 21100 15340 50  0000 C CNN
F 2 "" H 21100 15200 50  0000 C CNN
F 3 "" H 21100 15200 50  0000 C CNN
	1    21100 15200
	1    0    0    -1  
$EndComp
$Comp
L +15V #PWR028
U 1 1 57CB664B
P 21100 16150
F 0 "#PWR028" H 21100 16000 50  0001 C CNN
F 1 "+15V" H 21100 16290 50  0000 C CNN
F 2 "" H 21100 16150 50  0000 C CNN
F 3 "" H 21100 16150 50  0000 C CNN
	1    21100 16150
	1    0    0    -1  
$EndComp
Wire Wire Line
	23650 11400 24150 11400
Wire Wire Line
	23650 11500 24150 11500
Wire Wire Line
	24050 11600 24150 11600
Wire Wire Line
	24050 11000 24050 11600
$Comp
L +15V #PWR029
U 1 1 57CB8120
P 24050 11000
F 0 "#PWR029" H 24050 10850 50  0001 C CNN
F 1 "+15V" H 24050 11140 50  0000 C CNN
F 2 "" H 24050 11000 50  0000 C CNN
F 3 "" H 24050 11000 50  0000 C CNN
	1    24050 11000
	1    0    0    -1  
$EndComp
Wire Wire Line
	23900 11700 24150 11700
$Comp
L R R9
U 1 1 57CB90DF
P 23600 11700
F 0 "R9" H 23700 11600 60  0000 C CNN
F 1 "0r" H 23600 11800 60  0000 C CNN
F 2 "Fruits_Passivs:0805_m" H 23600 11700 60  0001 C CNN
F 3 "" H 23600 11700 60  0000 C CNN
	1    23600 11700
	1    0    0    -1  
$EndComp
Wire Wire Line
	23300 11700 23200 11700
Text Label 23650 11400 0    60   ~ 0
VH_opt_iso
Text Label 23650 11500 0    60   ~ 0
VL_opt_iso
Wire Wire Line
	23200 11700 23200 11800
$Comp
L GNDD #PWR030
U 1 1 57CBF1C6
P 23200 11800
F 0 "#PWR030" H 23200 11550 50  0001 C CNN
F 1 "GNDD" H 23200 11650 50  0000 C CNN
F 2 "" H 23200 11800 50  0000 C CNN
F 3 "" H 23200 11800 50  0000 C CNN
	1    23200 11800
	1    0    0    -1  
$EndComp
$Comp
L R R12
U 1 1 57CC071F
P 24450 11100
F 0 "R12" H 24550 11000 60  0000 C CNN
F 1 "5R6" H 24450 11200 60  0000 C CNN
F 2 "Fruits_Passivs:2512" H 24450 11100 60  0001 C CNN
F 3 "" H 24450 11100 60  0000 C CNN
	1    24450 11100
	1    0    0    -1  
$EndComp
Wire Wire Line
	24050 11100 24150 11100
Connection ~ 24050 11100
Wire Wire Line
	24750 11100 24850 11100
$Comp
L Diode D2
U 1 1 57CC0975
P 25050 11100
F 0 "D2" H 25050 11000 60  0000 C CNN
F 1 "Diode" H 25050 11200 60  0000 C CNN
F 2 "Diodes_SMD:SOD-123" H 25050 11100 60  0001 C CNN
F 3 "" H 25050 11100 60  0000 C CNN
	1    25050 11100
	1    0    0    -1  
$EndComp
Wire Wire Line
	25400 10900 25400 11500
Wire Wire Line
	25400 11500 25050 11500
$Comp
L C C21
U 1 1 57CC185F
P 25700 11250
F 0 "C21" H 25800 11100 60  0000 C CNN
F 1 "22uF" H 25700 11400 60  0000 C CNN
F 2 "Fruits_Passivs:2512" H 25700 11250 60  0001 C CNN
F 3 "" H 25700 11250 60  0000 C CNN
	1    25700 11250
	0    1    1    0   
$EndComp
Connection ~ 25400 11100
Wire Wire Line
	25300 11100 25400 11100
Wire Wire Line
	25400 10900 26400 10900
Wire Wire Line
	25700 10900 25700 11000
Wire Wire Line
	25700 11500 25700 11700
Wire Wire Line
	25050 11700 26400 11700
Wire Wire Line
	24150 11900 24050 11900
Wire Wire Line
	24050 11900 24050 12450
Wire Wire Line
	24050 12450 26750 12450
$Comp
L R R16
U 1 1 57CC4039
P 27050 11250
F 0 "R16" H 27150 11150 60  0000 C CNN
F 1 "10r" H 27050 11350 60  0000 C CNN
F 2 "Fruits_Passivs:2512" H 27050 11250 60  0001 C CNN
F 3 "" H 27050 11250 60  0000 C CNN
	1    27050 11250
	1    0    0    -1  
$EndComp
$Comp
L R R17
U 1 1 57CC410C
P 27050 12450
F 0 "R17" H 27150 12350 60  0000 C CNN
F 1 "10r" H 27050 12550 60  0000 C CNN
F 2 "Fruits_Passivs:2512" H 27050 12450 60  0001 C CNN
F 3 "" H 27050 12450 60  0000 C CNN
	1    27050 12450
	1    0    0    -1  
$EndComp
Wire Wire Line
	27350 11250 27550 11250
Wire Wire Line
	27350 12450 27550 12450
NoConn ~ 25050 11400
NoConn ~ 25050 11800
NoConn ~ 25050 11900
NoConn ~ 25050 12000
Wire Wire Line
	23600 12000 24150 12000
$Comp
L +15V #PWR031
U 1 1 57CC5039
P 23600 12000
F 0 "#PWR031" H 23600 11850 50  0001 C CNN
F 1 "+15V" H 23600 12140 50  0000 C CNN
F 2 "" H 23600 12000 50  0000 C CNN
F 3 "" H 23600 12000 50  0000 C CNN
	1    23600 12000
	0    -1   -1   0   
$EndComp
Wire Wire Line
	23700 12000 23700 12100
Connection ~ 23700 12000
$Comp
L C C18
U 1 1 57CC51C8
P 23700 12350
F 0 "C18" H 23800 12200 60  0000 C CNN
F 1 "1uF" H 23700 12500 60  0000 C CNN
F 2 "Fruits_Passivs:0805_m" H 23700 12350 60  0001 C CNN
F 3 "" H 23700 12350 60  0000 C CNN
	1    23700 12350
	0    1    1    0   
$EndComp
Wire Wire Line
	23700 12600 23700 12700
$Comp
L GNDD #PWR032
U 1 1 57CC57CC
P 23700 12700
F 0 "#PWR032" H 23700 12450 50  0001 C CNN
F 1 "GNDD" H 23700 12550 50  0000 C CNN
F 2 "" H 23700 12700 50  0000 C CNN
F 3 "" H 23700 12700 50  0000 C CNN
	1    23700 12700
	1    0    0    -1  
$EndComp
Wire Wire Line
	24150 11800 23950 11800
Wire Wire Line
	23950 11800 23950 12700
$Comp
L GNDD #PWR033
U 1 1 57CC6B0A
P 23950 12700
F 0 "#PWR033" H 23950 12450 50  0001 C CNN
F 1 "GNDD" H 23950 12550 50  0000 C CNN
F 2 "" H 23950 12700 50  0000 C CNN
F 3 "" H 23950 12700 50  0000 C CNN
	1    23950 12700
	1    0    0    -1  
$EndComp
Wire Wire Line
	11450 14250 11550 14250
Text Label 11550 14250 0    60   ~ 0
UH_uC
Wire Wire Line
	11450 14450 11550 14450
Text Label 11550 14450 0    60   ~ 0
UL_uC
Text Label 6050 14350 0    60   ~ 0
VH_uC
Text Label 6050 14550 0    60   ~ 0
VL_uC
Wire Wire Line
	5950 14350 6050 14350
Text Label 6050 14750 0    60   ~ 0
WH_uC
Wire Wire Line
	5950 14550 6050 14550
Text Label 6050 14950 0    60   ~ 0
WL_uC
$Comp
L MOSFET U6
U 1 1 57CE2235
P 27950 11100
F 0 "U6" H 27900 10750 60  0000 C CNN
F 1 "MOSFET" H 27850 11450 60  0000 C CNN
F 2 "Fruits_Activs:TO-262_HS" H 27950 11100 60  0001 C CNN
F 3 "" H 27950 11100 60  0000 C CNN
	1    27950 11100
	1    0    0    -1  
$EndComp
Wire Wire Line
	25050 11600 26650 11600
Wire Wire Line
	26650 11600 26650 11250
Wire Wire Line
	26650 11250 26750 11250
$Comp
L MOSFET U7
U 1 1 57CE350B
P 27950 12300
F 0 "U7" H 27900 11950 60  0000 C CNN
F 1 "MOSFET" H 27850 12650 60  0000 C CNN
F 2 "Fruits_Activs:TO-262_HS" H 27950 12300 60  0001 C CNN
F 3 "" H 27950 12300 60  0000 C CNN
	1    27950 12300
	1    0    0    -1  
$EndComp
Wire Wire Line
	28050 11500 28050 11900
Wire Wire Line
	28050 10550 28050 10700
Wire Wire Line
	28050 12700 28050 13350
$Comp
L VEE #PWR034
U 1 1 57CE62DC
P 28050 10550
F 0 "#PWR034" H 28050 10400 50  0001 C CNN
F 1 "VEE" H 28050 10700 50  0000 C CNN
F 2 "" H 28050 10550 50  0000 C CNN
F 3 "" H 28050 10550 50  0000 C CNN
	1    28050 10550
	1    0    0    -1  
$EndComp
$Comp
L GNDD #PWR035
U 1 1 57CE765D
P 28050 13350
F 0 "#PWR035" H 28050 13100 50  0001 C CNN
F 1 "GNDD" H 28050 13200 50  0000 C CNN
F 2 "" H 28050 13350 50  0000 C CNN
F 3 "" H 28050 13350 50  0000 C CNN
	1    28050 13350
	1    0    0    -1  
$EndComp
Wire Wire Line
	28050 11600 28600 11600
Connection ~ 28050 11600
Text Label 28600 11600 0    60   ~ 0
V_in
$Comp
L R R22
U 1 1 57CEBC1B
P 27450 11600
F 0 "R22" H 27550 11500 60  0000 C CNN
F 1 "10k" H 27450 11700 60  0000 C CNN
F 2 "Fruits_Passivs:0805" H 27450 11600 60  0001 C CNN
F 3 "" H 27450 11600 60  0000 C CNN
	1    27450 11600
	0    1    1    0   
$EndComp
Wire Wire Line
	27450 11250 27450 11300
Connection ~ 27450 11250
Wire Wire Line
	27450 11900 27450 11950
Wire Wire Line
	27450 11950 27550 11950
Wire Wire Line
	27550 11950 27550 11800
Wire Wire Line
	27550 11800 28050 11800
Connection ~ 28050 11800
$Comp
L R R23
U 1 1 57CEDC15
P 27450 12850
F 0 "R23" H 27550 12750 60  0000 C CNN
F 1 "10k" H 27450 12950 60  0000 C CNN
F 2 "Fruits_Passivs:0805" H 27450 12850 60  0001 C CNN
F 3 "" H 27450 12850 60  0000 C CNN
	1    27450 12850
	0    1    1    0   
$EndComp
Wire Wire Line
	27450 12450 27450 12550
Connection ~ 27450 12450
Wire Wire Line
	27450 13150 27450 13250
Wire Wire Line
	27450 13250 28950 13250
Connection ~ 28050 13250
$Comp
L Konnektor_20 J1
U 1 1 57C96B62
P 2400 15450
F 0 "J1" H 2400 14350 60  0000 C CNN
F 1 "Konnektor_20" H 2400 16500 60  0000 C CNN
F 2 "Fruits_PCBCons:FFC_1mm_20" H 2400 15450 60  0001 C CNN
F 3 "" H 2400 15450 60  0000 C CNN
	1    2400 15450
	-1   0    0    1   
$EndComp
Wire Wire Line
	2400 15800 2500 15800
Wire Wire Line
	2400 15700 2500 15700
Wire Wire Line
	2400 15600 2500 15600
Wire Wire Line
	2400 14900 2500 14900
Text Label 2500 15800 0    60   ~ 0
SCLK
Text Label 2500 15700 0    60   ~ 0
MOSI
Text Label 2500 15600 0    60   ~ 0
MISO
Text Label 2500 14900 0    60   ~ 0
_CS_FU
NoConn ~ 2400 16400
NoConn ~ 2400 16300
NoConn ~ 2400 16200
NoConn ~ 2400 16100
NoConn ~ 2400 16000
NoConn ~ 2400 15900
NoConn ~ 2400 15500
NoConn ~ 2400 15400
NoConn ~ 2400 15300
NoConn ~ 2400 15200
NoConn ~ 2400 15100
NoConn ~ 2400 15000
NoConn ~ 2400 14800
NoConn ~ 2400 14700
NoConn ~ 2400 14600
NoConn ~ 2400 14500
Wire Wire Line
	5950 16250 6050 16250
Wire Wire Line
	5950 16350 6050 16350
Text Label 6050 16250 0    60   ~ 0
MISO
Text Label 6050 16350 0    60   ~ 0
MOSI
Wire Wire Line
	5950 16750 6050 16750
Text Label 6050 16750 0    60   ~ 0
_CS_FU
Wire Wire Line
	5950 16450 6050 16450
Text Label 6050 16450 0    60   ~ 0
SCLK
Wire Wire Line
	5950 14750 6050 14750
Wire Wire Line
	5950 14950 6050 14950
$Comp
L FAN73933 IC10
U 1 1 57CA30D9
P 24600 15250
F 0 "IC10" H 24600 14850 60  0000 C CNN
F 1 "FAN73933" H 24600 15650 60  0000 C CNN
F 2 "Fruits_ICs:FAN73933" H 24600 15050 60  0001 C CNN
F 3 "" H 24600 15050 60  0000 C CNN
	1    24600 15250
	1    0    0    -1  
$EndComp
Wire Wire Line
	23650 14950 24150 14950
Wire Wire Line
	23650 15050 24150 15050
Wire Wire Line
	24050 15150 24150 15150
Wire Wire Line
	24050 14550 24050 15150
$Comp
L +15V #PWR036
U 1 1 57CA30E4
P 24050 14550
F 0 "#PWR036" H 24050 14400 50  0001 C CNN
F 1 "+15V" H 24050 14690 50  0000 C CNN
F 2 "" H 24050 14550 50  0000 C CNN
F 3 "" H 24050 14550 50  0000 C CNN
	1    24050 14550
	1    0    0    -1  
$EndComp
Wire Wire Line
	23900 15250 24150 15250
$Comp
L R R10
U 1 1 57CA30EB
P 23600 15250
F 0 "R10" H 23700 15150 60  0000 C CNN
F 1 "0r" H 23600 15350 60  0000 C CNN
F 2 "Fruits_Passivs:0805_m" H 23600 15250 60  0001 C CNN
F 3 "" H 23600 15250 60  0000 C CNN
	1    23600 15250
	1    0    0    -1  
$EndComp
Wire Wire Line
	23300 15250 23200 15250
Text Label 23650 14950 0    60   ~ 0
WH_opt_iso
Text Label 23650 15050 0    60   ~ 0
WL_opt_iso
Wire Wire Line
	23200 15250 23200 15350
$Comp
L GNDD #PWR037
U 1 1 57CA30F5
P 23200 15350
F 0 "#PWR037" H 23200 15100 50  0001 C CNN
F 1 "GNDD" H 23200 15200 50  0000 C CNN
F 2 "" H 23200 15350 50  0000 C CNN
F 3 "" H 23200 15350 50  0000 C CNN
	1    23200 15350
	1    0    0    -1  
$EndComp
$Comp
L R R13
U 1 1 57CA30FB
P 24450 14650
F 0 "R13" H 24550 14550 60  0000 C CNN
F 1 "5R6" H 24450 14750 60  0000 C CNN
F 2 "Fruits_Passivs:2512" H 24450 14650 60  0001 C CNN
F 3 "" H 24450 14650 60  0000 C CNN
	1    24450 14650
	1    0    0    -1  
$EndComp
Wire Wire Line
	24050 14650 24150 14650
Connection ~ 24050 14650
Wire Wire Line
	24750 14650 24850 14650
$Comp
L Diode D3
U 1 1 57CA3104
P 25050 14650
F 0 "D3" H 25050 14550 60  0000 C CNN
F 1 "Diode" H 25050 14750 60  0000 C CNN
F 2 "Diodes_SMD:SOD-123" H 25050 14650 60  0001 C CNN
F 3 "" H 25050 14650 60  0000 C CNN
	1    25050 14650
	1    0    0    -1  
$EndComp
Wire Wire Line
	25400 14450 25400 15050
Wire Wire Line
	25400 15050 25050 15050
$Comp
L C C22
U 1 1 57CA310D
P 25700 14800
F 0 "C22" H 25800 14650 60  0000 C CNN
F 1 "22uF" H 25700 14950 60  0000 C CNN
F 2 "Fruits_Passivs:2512" H 25700 14800 60  0001 C CNN
F 3 "" H 25700 14800 60  0000 C CNN
	1    25700 14800
	0    1    1    0   
$EndComp
Connection ~ 25400 14650
Wire Wire Line
	25300 14650 25400 14650
Wire Wire Line
	25400 14450 26400 14450
Wire Wire Line
	25700 14450 25700 14550
Wire Wire Line
	25700 15050 25700 15250
Wire Wire Line
	25050 15250 26400 15250
Wire Wire Line
	24150 15450 24050 15450
Wire Wire Line
	24050 15450 24050 16000
Wire Wire Line
	24050 16000 26750 16000
$Comp
L R R18
U 1 1 57CA311C
P 26800 14800
F 0 "R18" H 26900 14700 60  0000 C CNN
F 1 "10r" H 26800 14900 60  0000 C CNN
F 2 "Fruits_Passivs:2512" H 26800 14800 60  0001 C CNN
F 3 "" H 26800 14800 60  0000 C CNN
	1    26800 14800
	0    1    1    0   
$EndComp
$Comp
L R R19
U 1 1 57CA3122
P 27050 16000
F 0 "R19" H 27150 15900 60  0000 C CNN
F 1 "10r" H 27050 16100 60  0000 C CNN
F 2 "Fruits_Passivs:2512" H 27050 16000 60  0001 C CNN
F 3 "" H 27050 16000 60  0000 C CNN
	1    27050 16000
	1    0    0    -1  
$EndComp
Wire Wire Line
	27350 16000 27550 16000
NoConn ~ 25050 14950
NoConn ~ 25050 15350
NoConn ~ 25050 15450
NoConn ~ 25050 15550
Wire Wire Line
	23600 15550 24150 15550
$Comp
L +15V #PWR038
U 1 1 57CA3132
P 23600 15550
F 0 "#PWR038" H 23600 15400 50  0001 C CNN
F 1 "+15V" H 23600 15690 50  0000 C CNN
F 2 "" H 23600 15550 50  0000 C CNN
F 3 "" H 23600 15550 50  0000 C CNN
	1    23600 15550
	0    -1   -1   0   
$EndComp
Wire Wire Line
	23700 15550 23700 15650
Connection ~ 23700 15550
$Comp
L C C19
U 1 1 57CA313A
P 23700 15900
F 0 "C19" H 23800 15750 60  0000 C CNN
F 1 "1uF" H 23700 16050 60  0000 C CNN
F 2 "Fruits_Passivs:0805_m" H 23700 15900 60  0001 C CNN
F 3 "" H 23700 15900 60  0000 C CNN
	1    23700 15900
	0    1    1    0   
$EndComp
Wire Wire Line
	23700 16150 23700 16250
$Comp
L GNDD #PWR039
U 1 1 57CA3141
P 23700 16250
F 0 "#PWR039" H 23700 16000 50  0001 C CNN
F 1 "GNDD" H 23700 16100 50  0000 C CNN
F 2 "" H 23700 16250 50  0000 C CNN
F 3 "" H 23700 16250 50  0000 C CNN
	1    23700 16250
	1    0    0    -1  
$EndComp
Wire Wire Line
	24150 15350 23950 15350
Wire Wire Line
	23950 15350 23950 16250
$Comp
L GNDD #PWR040
U 1 1 57CA3149
P 23950 16250
F 0 "#PWR040" H 23950 16000 50  0001 C CNN
F 1 "GNDD" H 23950 16100 50  0000 C CNN
F 2 "" H 23950 16250 50  0000 C CNN
F 3 "" H 23950 16250 50  0000 C CNN
	1    23950 16250
	1    0    0    -1  
$EndComp
$Comp
L MOSFET U8
U 1 1 57CA314F
P 27950 14650
F 0 "U8" H 27900 14300 60  0000 C CNN
F 1 "MOSFET" H 27850 15000 60  0000 C CNN
F 2 "Fruits_Activs:TO-262_HS" H 27950 14650 60  0001 C CNN
F 3 "" H 27950 14650 60  0000 C CNN
	1    27950 14650
	1    0    0    -1  
$EndComp
Wire Wire Line
	25050 15150 26800 15150
$Comp
L MOSFET U9
U 1 1 57CA3158
P 27950 15850
F 0 "U9" H 27900 15500 60  0000 C CNN
F 1 "MOSFET" H 27850 16200 60  0000 C CNN
F 2 "Fruits_Activs:TO-262_HS" H 27950 15850 60  0001 C CNN
F 3 "" H 27950 15850 60  0000 C CNN
	1    27950 15850
	1    0    0    -1  
$EndComp
Wire Wire Line
	28050 15050 28050 15450
Wire Wire Line
	28050 14100 28050 14250
Wire Wire Line
	28050 16250 28050 16900
$Comp
L VEE #PWR041
U 1 1 57CA3164
P 28050 14100
F 0 "#PWR041" H 28050 13950 50  0001 C CNN
F 1 "VEE" H 28050 14250 50  0000 C CNN
F 2 "" H 28050 14100 50  0000 C CNN
F 3 "" H 28050 14100 50  0000 C CNN
	1    28050 14100
	1    0    0    -1  
$EndComp
$Comp
L GNDD #PWR042
U 1 1 57CA316A
P 28050 16900
F 0 "#PWR042" H 28050 16650 50  0001 C CNN
F 1 "GNDD" H 28050 16750 50  0000 C CNN
F 2 "" H 28050 16900 50  0000 C CNN
F 3 "" H 28050 16900 50  0000 C CNN
	1    28050 16900
	1    0    0    -1  
$EndComp
Wire Wire Line
	28050 15150 28600 15150
Connection ~ 28050 15150
Text Label 28600 15150 0    60   ~ 0
W_in
$Comp
L R R24
U 1 1 57CA3173
P 27100 14800
F 0 "R24" H 27200 14700 60  0000 C CNN
F 1 "10k" H 27100 14900 60  0000 C CNN
F 2 "Fruits_Passivs:0805" H 27100 14800 60  0001 C CNN
F 3 "" H 27100 14800 60  0000 C CNN
	1    27100 14800
	0    1    1    0   
$EndComp
Wire Wire Line
	27100 15350 28050 15350
Connection ~ 28050 15350
$Comp
L R R25
U 1 1 57CA3180
P 27450 16400
F 0 "R25" H 27550 16300 60  0000 C CNN
F 1 "10k" H 27450 16500 60  0000 C CNN
F 2 "Fruits_Passivs:0805" H 27450 16400 60  0001 C CNN
F 3 "" H 27450 16400 60  0000 C CNN
	1    27450 16400
	0    1    1    0   
$EndComp
Wire Wire Line
	27450 16000 27450 16100
Connection ~ 27450 16000
Wire Wire Line
	27450 16700 27450 16800
Wire Wire Line
	27450 16800 28900 16800
Connection ~ 28050 16800
$Comp
L FAN73933 IC8
U 1 1 57CA3839
P 24600 8150
F 0 "IC8" H 24600 7750 60  0000 C CNN
F 1 "FAN73933" H 24600 8550 60  0000 C CNN
F 2 "Fruits_ICs:FAN73933" H 24600 7950 60  0001 C CNN
F 3 "" H 24600 7950 60  0000 C CNN
	1    24600 8150
	1    0    0    -1  
$EndComp
Wire Wire Line
	23650 7850 24150 7850
Wire Wire Line
	23650 7950 24150 7950
Wire Wire Line
	24050 8050 24150 8050
Wire Wire Line
	24050 7450 24050 8050
$Comp
L +15V #PWR043
U 1 1 57CA3844
P 24050 7450
F 0 "#PWR043" H 24050 7300 50  0001 C CNN
F 1 "+15V" H 24050 7590 50  0000 C CNN
F 2 "" H 24050 7450 50  0000 C CNN
F 3 "" H 24050 7450 50  0000 C CNN
	1    24050 7450
	1    0    0    -1  
$EndComp
Wire Wire Line
	23900 8150 24150 8150
$Comp
L R R8
U 1 1 57CA384B
P 23600 8150
F 0 "R8" H 23700 8050 60  0000 C CNN
F 1 "0r" H 23600 8250 60  0000 C CNN
F 2 "Fruits_Passivs:0805_m" H 23600 8150 60  0001 C CNN
F 3 "" H 23600 8150 60  0000 C CNN
	1    23600 8150
	1    0    0    -1  
$EndComp
Wire Wire Line
	23300 8150 23200 8150
Text Label 23650 7850 0    60   ~ 0
UH_opt_iso
Text Label 23650 7950 0    60   ~ 0
UL_opt_iso
Wire Wire Line
	23200 8150 23200 8250
$Comp
L GNDD #PWR044
U 1 1 57CA3855
P 23200 8250
F 0 "#PWR044" H 23200 8000 50  0001 C CNN
F 1 "GNDD" H 23200 8100 50  0000 C CNN
F 2 "" H 23200 8250 50  0000 C CNN
F 3 "" H 23200 8250 50  0000 C CNN
	1    23200 8250
	1    0    0    -1  
$EndComp
$Comp
L R R11
U 1 1 57CA385B
P 24450 7550
F 0 "R11" H 24550 7450 60  0000 C CNN
F 1 "5R6" H 24450 7650 60  0000 C CNN
F 2 "Fruits_Passivs:2512" H 24450 7550 60  0001 C CNN
F 3 "" H 24450 7550 60  0000 C CNN
	1    24450 7550
	1    0    0    -1  
$EndComp
Wire Wire Line
	24050 7550 24150 7550
Connection ~ 24050 7550
Wire Wire Line
	24750 7550 24850 7550
$Comp
L Diode D1
U 1 1 57CA3864
P 25050 7550
F 0 "D1" H 25050 7450 60  0000 C CNN
F 1 "Diode" H 25050 7650 60  0000 C CNN
F 2 "Diodes_SMD:SOD-123" H 25050 7550 60  0001 C CNN
F 3 "" H 25050 7550 60  0000 C CNN
	1    25050 7550
	1    0    0    -1  
$EndComp
Wire Wire Line
	25400 7350 25400 7950
Wire Wire Line
	25400 7950 25050 7950
$Comp
L C C20
U 1 1 57CA386D
P 25700 7700
F 0 "C20" H 25800 7550 60  0000 C CNN
F 1 "22uF" H 25700 7850 60  0000 C CNN
F 2 "Fruits_Passivs:2512" H 25700 7700 60  0001 C CNN
F 3 "" H 25700 7700 60  0000 C CNN
	1    25700 7700
	0    1    1    0   
$EndComp
Connection ~ 25400 7550
Wire Wire Line
	25300 7550 25400 7550
Wire Wire Line
	25400 7350 26400 7350
Wire Wire Line
	25700 7350 25700 7450
Wire Wire Line
	25700 7950 25700 8150
Wire Wire Line
	25050 8150 26400 8150
Wire Wire Line
	24150 8350 24050 8350
Wire Wire Line
	24050 8350 24050 8900
Wire Wire Line
	24050 8900 26750 8900
$Comp
L R R14
U 1 1 57CA387C
P 27050 7700
F 0 "R14" H 27150 7600 60  0000 C CNN
F 1 "10r" H 27050 7800 60  0000 C CNN
F 2 "Fruits_Passivs:2512" H 27050 7700 60  0001 C CNN
F 3 "" H 27050 7700 60  0000 C CNN
	1    27050 7700
	1    0    0    -1  
$EndComp
$Comp
L R R15
U 1 1 57CA3882
P 27050 8900
F 0 "R15" H 27150 8800 60  0000 C CNN
F 1 "10r" H 27050 9000 60  0000 C CNN
F 2 "Fruits_Passivs:2512" H 27050 8900 60  0001 C CNN
F 3 "" H 27050 8900 60  0000 C CNN
	1    27050 8900
	1    0    0    -1  
$EndComp
Wire Wire Line
	27350 7700 27550 7700
Wire Wire Line
	27350 8900 27550 8900
NoConn ~ 25050 7850
NoConn ~ 25050 8250
NoConn ~ 25050 8350
NoConn ~ 25050 8450
Wire Wire Line
	23600 8450 24150 8450
$Comp
L +15V #PWR045
U 1 1 57CA3892
P 23600 8450
F 0 "#PWR045" H 23600 8300 50  0001 C CNN
F 1 "+15V" H 23600 8590 50  0000 C CNN
F 2 "" H 23600 8450 50  0000 C CNN
F 3 "" H 23600 8450 50  0000 C CNN
	1    23600 8450
	0    -1   -1   0   
$EndComp
Wire Wire Line
	23700 8450 23700 8550
Connection ~ 23700 8450
$Comp
L C C17
U 1 1 57CA389A
P 23700 8800
F 0 "C17" H 23800 8650 60  0000 C CNN
F 1 "1uF" H 23700 8950 60  0000 C CNN
F 2 "Fruits_Passivs:0805_m" H 23700 8800 60  0001 C CNN
F 3 "" H 23700 8800 60  0000 C CNN
	1    23700 8800
	0    1    1    0   
$EndComp
Wire Wire Line
	23700 9050 23700 9150
$Comp
L GNDD #PWR046
U 1 1 57CA38A1
P 23700 9150
F 0 "#PWR046" H 23700 8900 50  0001 C CNN
F 1 "GNDD" H 23700 9000 50  0000 C CNN
F 2 "" H 23700 9150 50  0000 C CNN
F 3 "" H 23700 9150 50  0000 C CNN
	1    23700 9150
	1    0    0    -1  
$EndComp
Wire Wire Line
	24150 8250 23950 8250
Wire Wire Line
	23950 8250 23950 9150
$Comp
L GNDD #PWR047
U 1 1 57CA38A9
P 23950 9150
F 0 "#PWR047" H 23950 8900 50  0001 C CNN
F 1 "GNDD" H 23950 9000 50  0000 C CNN
F 2 "" H 23950 9150 50  0000 C CNN
F 3 "" H 23950 9150 50  0000 C CNN
	1    23950 9150
	1    0    0    -1  
$EndComp
$Comp
L MOSFET U4
U 1 1 57CA38AF
P 27950 7550
F 0 "U4" H 27900 7200 60  0000 C CNN
F 1 "MOSFET" H 27850 7900 60  0000 C CNN
F 2 "Fruits_Activs:TO-262_HS" H 27950 7550 60  0001 C CNN
F 3 "" H 27950 7550 60  0000 C CNN
	1    27950 7550
	1    0    0    -1  
$EndComp
Wire Wire Line
	25050 8050 26650 8050
Wire Wire Line
	26650 8050 26650 7700
Wire Wire Line
	26650 7700 26750 7700
$Comp
L MOSFET U5
U 1 1 57CA38B8
P 27950 8750
F 0 "U5" H 27900 8400 60  0000 C CNN
F 1 "MOSFET" H 27850 9100 60  0000 C CNN
F 2 "Fruits_Activs:TO-262_HS" H 27950 8750 60  0001 C CNN
F 3 "" H 27950 8750 60  0000 C CNN
	1    27950 8750
	1    0    0    -1  
$EndComp
Wire Wire Line
	28050 7950 28050 8350
Wire Wire Line
	28050 7000 28050 7150
Wire Wire Line
	28050 9150 28050 9800
$Comp
L VEE #PWR048
U 1 1 57CA38C4
P 28050 7000
F 0 "#PWR048" H 28050 6850 50  0001 C CNN
F 1 "VEE" H 28050 7150 50  0000 C CNN
F 2 "" H 28050 7000 50  0000 C CNN
F 3 "" H 28050 7000 50  0000 C CNN
	1    28050 7000
	1    0    0    -1  
$EndComp
$Comp
L GNDD #PWR049
U 1 1 57CA38CA
P 28050 9800
F 0 "#PWR049" H 28050 9550 50  0001 C CNN
F 1 "GNDD" H 28050 9650 50  0000 C CNN
F 2 "" H 28050 9800 50  0000 C CNN
F 3 "" H 28050 9800 50  0000 C CNN
	1    28050 9800
	1    0    0    -1  
$EndComp
Wire Wire Line
	28050 8050 28600 8050
Connection ~ 28050 8050
Text Label 28600 8050 0    60   ~ 0
U_in
$Comp
L R R20
U 1 1 57CA38D3
P 27450 8050
F 0 "R20" H 27550 7950 60  0000 C CNN
F 1 "10k" H 27450 8150 60  0000 C CNN
F 2 "Fruits_Passivs:0805" H 27450 8050 60  0001 C CNN
F 3 "" H 27450 8050 60  0000 C CNN
	1    27450 8050
	0    1    1    0   
$EndComp
Wire Wire Line
	27450 7700 27450 7750
Connection ~ 27450 7700
Wire Wire Line
	27450 8350 27450 8400
Wire Wire Line
	27450 8400 27550 8400
Wire Wire Line
	27550 8400 27550 8250
Wire Wire Line
	27550 8250 28050 8250
Connection ~ 28050 8250
$Comp
L R R21
U 1 1 57CA38E0
P 27450 9300
F 0 "R21" H 27550 9200 60  0000 C CNN
F 1 "10k" H 27450 9400 60  0000 C CNN
F 2 "Fruits_Passivs:0805" H 27450 9300 60  0001 C CNN
F 3 "" H 27450 9300 60  0000 C CNN
	1    27450 9300
	0    1    1    0   
$EndComp
Wire Wire Line
	27450 8900 27450 9000
Connection ~ 27450 8900
Wire Wire Line
	27450 9600 27450 9700
Wire Wire Line
	27450 9700 29050 9700
Connection ~ 28050 9700
$Comp
L ACS75 U3
U 1 1 57CB3055
P 20400 10450
F 0 "U3" H 20400 10150 60  0000 C CNN
F 1 "ACS75" H 20400 10750 60  0000 C CNN
F 2 "Fruits_ICs:ACS75_PFF" H 20400 10450 60  0001 C CNN
F 3 "" H 20400 10450 60  0000 C CNN
	1    20400 10450
	-1   0    0    1   
$EndComp
Wire Wire Line
	19950 10300 19700 10300
Wire Wire Line
	19950 10450 19850 10450
Wire Wire Line
	19850 10450 19850 10750
$Comp
L GND #PWR050
U 1 1 57CBBE6B
P 19850 10750
F 0 "#PWR050" H 19850 10500 50  0001 C CNN
F 1 "GND" H 19850 10600 50  0000 C CNN
F 2 "" H 19850 10750 50  0000 C CNN
F 3 "" H 19850 10750 50  0000 C CNN
	1    19850 10750
	1    0    0    -1  
$EndComp
Wire Wire Line
	19400 10600 19950 10600
$Comp
L +3.3V #PWR051
U 1 1 57CBCFEB
P 19400 10600
F 0 "#PWR051" H 19400 10450 50  0001 C CNN
F 1 "+3.3V" H 19400 10740 50  0000 C CNN
F 2 "" H 19400 10600 50  0000 C CNN
F 3 "" H 19400 10600 50  0000 C CNN
	1    19400 10600
	0    -1   -1   0   
$EndComp
$Comp
L VEE #PWR052
U 1 1 57CCA82F
P 13500 10950
F 0 "#PWR052" H 13500 10800 50  0001 C CNN
F 1 "VEE" H 13500 11100 50  0000 C CNN
F 2 "" H 13500 10950 50  0000 C CNN
F 3 "" H 13500 10950 50  0000 C CNN
	1    13500 10950
	1    0    0    -1  
$EndComp
$Comp
L VEE #PWR053
U 1 1 57CCBED1
P 13800 10950
F 0 "#PWR053" H 13800 10800 50  0001 C CNN
F 1 "VEE" H 13800 11100 50  0000 C CNN
F 2 "" H 13800 10950 50  0000 C CNN
F 3 "" H 13800 10950 50  0000 C CNN
	1    13800 10950
	1    0    0    -1  
$EndComp
$Comp
L VEE #PWR054
U 1 1 57CD163F
P 19700 6900
F 0 "#PWR054" H 19700 6750 50  0001 C CNN
F 1 "VEE" H 19700 7050 50  0000 C CNN
F 2 "" H 19700 6900 50  0000 C CNN
F 3 "" H 19700 6900 50  0000 C CNN
	1    19700 6900
	1    0    0    -1  
$EndComp
Wire Wire Line
	20850 10300 21050 10300
Wire Wire Line
	20850 10600 21050 10600
$Comp
L ACS75 U11
U 1 1 59D9A379
P 20400 9550
F 0 "U11" H 20400 9250 60  0000 C CNN
F 1 "ACS75" H 20400 9850 60  0000 C CNN
F 2 "Fruits_ICs:ACS75_PFF" H 20400 9550 60  0001 C CNN
F 3 "" H 20400 9550 60  0000 C CNN
	1    20400 9550
	-1   0    0    1   
$EndComp
$Comp
L ACS75 U10
U 1 1 59D9AB59
P 20400 8600
F 0 "U10" H 20400 8300 60  0000 C CNN
F 1 "ACS75" H 20400 8900 60  0000 C CNN
F 2 "Fruits_ICs:ACS75_PFF" H 20400 8600 60  0001 C CNN
F 3 "" H 20400 8600 60  0000 C CNN
	1    20400 8600
	-1   0    0    1   
$EndComp
Wire Wire Line
	19950 8450 19750 8450
Wire Wire Line
	19950 9400 19700 9400
Text Label 19700 9400 0    60   ~ 0
V_V
Text Label 19750 8450 0    60   ~ 0
V_U
Text Label 19700 10300 0    60   ~ 0
V_W
Wire Wire Line
	19950 9550 19850 9550
Wire Wire Line
	19850 9550 19850 9850
Wire Wire Line
	19400 9700 19950 9700
Wire Wire Line
	19950 8600 19850 8600
Wire Wire Line
	19850 8600 19850 8900
Wire Wire Line
	19400 8750 19950 8750
$Comp
L +3.3V #PWR055
U 1 1 59DA9932
P 19400 9700
F 0 "#PWR055" H 19400 9550 50  0001 C CNN
F 1 "+3.3V" H 19400 9840 50  0000 C CNN
F 2 "" H 19400 9700 50  0000 C CNN
F 3 "" H 19400 9700 50  0000 C CNN
	1    19400 9700
	0    -1   -1   0   
$EndComp
$Comp
L +3.3V #PWR056
U 1 1 59DA9A24
P 19400 8750
F 0 "#PWR056" H 19400 8600 50  0001 C CNN
F 1 "+3.3V" H 19400 8890 50  0000 C CNN
F 2 "" H 19400 8750 50  0000 C CNN
F 3 "" H 19400 8750 50  0000 C CNN
	1    19400 8750
	0    -1   -1   0   
$EndComp
$Comp
L GND #PWR057
U 1 1 59DAB8DD
P 19850 9850
F 0 "#PWR057" H 19850 9600 50  0001 C CNN
F 1 "GND" H 19850 9700 50  0000 C CNN
F 2 "" H 19850 9850 50  0000 C CNN
F 3 "" H 19850 9850 50  0000 C CNN
	1    19850 9850
	1    0    0    -1  
$EndComp
$Comp
L GND #PWR058
U 1 1 59DAB9CF
P 19850 8900
F 0 "#PWR058" H 19850 8650 50  0001 C CNN
F 1 "GND" H 19850 8750 50  0000 C CNN
F 2 "" H 19850 8900 50  0000 C CNN
F 3 "" H 19850 8900 50  0000 C CNN
	1    19850 8900
	1    0    0    -1  
$EndComp
Wire Wire Line
	20850 9700 21050 9700
Wire Wire Line
	20850 9400 21050 9400
Wire Wire Line
	20850 8750 21050 8750
Wire Wire Line
	20850 8450 21050 8450
Wire Wire Line
	7900 17150 8100 17150
Wire Wire Line
	7900 17250 8100 17250
Wire Wire Line
	7900 17350 8100 17350
Text Label 8100 17150 0    60   ~ 0
V_U
Text Label 8100 17250 0    60   ~ 0
V_V
Text Label 8100 17350 0    60   ~ 0
V_W
$Comp
L SAME70Q IC1
U 1 1 57C9089C
P 9700 15050
F 0 "IC1" H 9700 12400 60  0000 C CNN
F 1 "SAME70Q" H 9700 16200 60  0000 C CNN
F 2 "Fruits_ICs:144-LQFP" H 11250 15000 60  0001 C CNN
F 3 "" H 11250 15000 60  0000 C CNN
	1    9700 15050
	1    0    0    -1  
$EndComp
Text Notes 8000 17900 0    60   ~ 0
V_U -> AFEC1_AD4\nV_V -> AFEC1_AD5\nV_W -> AFEC1_AD6
$Comp
L C C24
U 1 1 59D90386
P 26050 11250
F 0 "C24" H 26150 11100 60  0000 C CNN
F 1 "22uF" H 26050 11400 60  0000 C CNN
F 2 "Fruits_Passivs:2512" H 26050 11250 60  0001 C CNN
F 3 "" H 26050 11250 60  0000 C CNN
	1    26050 11250
	0    1    1    0   
$EndComp
$Comp
L C C27
U 1 1 59D9048A
P 26400 11250
F 0 "C27" H 26500 11100 60  0000 C CNN
F 1 "22uF" H 26400 11400 60  0000 C CNN
F 2 "Fruits_Passivs:2512" H 26400 11250 60  0001 C CNN
F 3 "" H 26400 11250 60  0000 C CNN
	1    26400 11250
	0    1    1    0   
$EndComp
Wire Wire Line
	26050 10900 26050 11000
Connection ~ 25700 10900
Wire Wire Line
	26400 10900 26400 11000
Connection ~ 26050 10900
Wire Wire Line
	26050 11700 26050 11500
Connection ~ 25700 11700
Wire Wire Line
	26400 11700 26400 11500
Connection ~ 26050 11700
$Comp
L C C23
U 1 1 59D92909
P 26050 7700
F 0 "C23" H 26150 7550 60  0000 C CNN
F 1 "22uF" H 26050 7850 60  0000 C CNN
F 2 "Fruits_Passivs:2512" H 26050 7700 60  0001 C CNN
F 3 "" H 26050 7700 60  0000 C CNN
	1    26050 7700
	0    1    1    0   
$EndComp
$Comp
L C C26
U 1 1 59D92A13
P 26400 7700
F 0 "C26" H 26500 7550 60  0000 C CNN
F 1 "22uF" H 26400 7850 60  0000 C CNN
F 2 "Fruits_Passivs:2512" H 26400 7700 60  0001 C CNN
F 3 "" H 26400 7700 60  0000 C CNN
	1    26400 7700
	0    1    1    0   
$EndComp
Wire Wire Line
	26050 7350 26050 7450
Connection ~ 25700 7350
Wire Wire Line
	26400 7350 26400 7450
Connection ~ 26050 7350
Wire Wire Line
	26050 8150 26050 7950
Connection ~ 25700 8150
Wire Wire Line
	26400 8150 26400 7950
Connection ~ 26050 8150
$Comp
L C C25
U 1 1 59D95B32
P 26050 14800
F 0 "C25" H 26150 14650 60  0000 C CNN
F 1 "22uF" H 26050 14950 60  0000 C CNN
F 2 "Fruits_Passivs:2512" H 26050 14800 60  0001 C CNN
F 3 "" H 26050 14800 60  0000 C CNN
	1    26050 14800
	0    1    1    0   
$EndComp
$Comp
L C C28
U 1 1 59D95C42
P 26400 14800
F 0 "C28" H 26500 14650 60  0000 C CNN
F 1 "22uF" H 26400 14950 60  0000 C CNN
F 2 "Fruits_Passivs:2512" H 26400 14800 60  0001 C CNN
F 3 "" H 26400 14800 60  0000 C CNN
	1    26400 14800
	0    1    1    0   
$EndComp
Wire Wire Line
	26050 14450 26050 14550
Connection ~ 25700 14450
Wire Wire Line
	26400 14450 26400 14550
Connection ~ 26050 14450
Wire Wire Line
	26050 15250 26050 15050
Connection ~ 25700 15250
Wire Wire Line
	26400 15250 26400 15050
Connection ~ 26050 15250
Wire Wire Line
	26800 15150 26800 15100
Wire Wire Line
	26800 14500 26800 14450
Wire Wire Line
	26800 14450 27450 14450
Wire Wire Line
	27450 14450 27450 14800
Wire Wire Line
	27450 14800 27550 14800
Wire Wire Line
	27100 14500 27100 14450
Connection ~ 27100 14450
Wire Wire Line
	27100 15100 27100 15350
Text Label 21050 8450 0    60   ~ 0
U_in
Text Label 21050 8750 0    60   ~ 0
U_out
Text Label 21050 9400 0    60   ~ 0
V_in
Text Label 21050 9700 0    60   ~ 0
V_out
Text Label 21050 10300 0    60   ~ 0
W_in
Text Label 21050 10600 0    60   ~ 0
W_out
$Comp
L Schraubverbindung J6
U 1 1 59DB1849
P 29650 8050
F 0 "J6" H 29650 7950 60  0000 C CNN
F 1 "Schraubverbindung" H 29650 8350 60  0001 C CNN
F 2 "Fruits_PCBCons:M2.5" H 29650 8050 60  0001 C CNN
F 3 "" H 29650 8050 60  0000 C CNN
	1    29650 8050
	0    1    1    0   
$EndComp
$Comp
L Schraubverbindung J5
U 1 1 59DB2FF6
P 29450 11600
F 0 "J5" H 29450 11500 60  0000 C CNN
F 1 "Schraubverbindung" H 29450 11900 60  0001 C CNN
F 2 "Fruits_PCBCons:M2.5" H 29450 11600 60  0001 C CNN
F 3 "" H 29450 11600 60  0000 C CNN
	1    29450 11600
	0    1    1    0   
$EndComp
$Comp
L Schraubverbindung J4
U 1 1 59DB3314
P 29300 15150
F 0 "J4" H 29300 15050 60  0000 C CNN
F 1 "Schraubverbindung" H 29300 15450 60  0001 C CNN
F 2 "Fruits_PCBCons:M2.5" H 29300 15150 60  0001 C CNN
F 3 "" H 29300 15150 60  0000 C CNN
	1    29300 15150
	0    1    1    0   
$EndComp
Wire Wire Line
	29300 15150 29100 15150
Wire Wire Line
	29450 11600 29250 11600
Wire Wire Line
	29650 8050 29400 8050
Text Label 29100 15150 0    60   ~ 0
W_out
Text Label 29250 11600 0    60   ~ 0
V_out
Text Label 29400 8050 0    60   ~ 0
U_out
Text Label 15300 16450 0    60   ~ 0
VDDPLL
Text Label 14800 16450 0    60   ~ 0
VDDUTMIC
$Comp
L Konnektor_10 J7
U 1 1 59EFA7F6
P 10600 11050
F 0 "J7" H 10600 10450 60  0000 C CNN
F 1 "Konnektor_10" H 10600 11650 60  0000 C CNN
F 2 "Fruits_PCBCons:TH_Header_2x5" H 10600 10550 60  0001 C CNN
F 3 "" H 10600 10550 60  0000 C CNN
	1    10600 11050
	0    -1   -1   0   
$EndComp
Wire Wire Line
	10150 11050 10150 11450
Wire Wire Line
	10250 11050 10250 11350
Wire Wire Line
	10350 11050 10350 11350
Wire Wire Line
	10450 11050 10450 11350
Wire Wire Line
	10550 11050 10550 11350
Wire Wire Line
	10650 11050 10650 11350
Wire Wire Line
	10750 11050 10750 11350
Wire Wire Line
	10850 11050 10850 11350
Wire Wire Line
	10950 11050 10950 11350
Wire Wire Line
	11050 11050 11050 11350
$Comp
L PTSA_8 J8
U 1 1 59F010B0
P 7350 11000
F 0 "J8" H 7600 10500 60  0000 C CNN
F 1 "PTSA_8" H 7750 11000 60  0000 C CNN
F 2 "Fruits_PCBCons:PTSA_2.5Z_8" H 7250 11150 60  0001 C CNN
F 3 "" H 7250 11150 60  0000 C CNN
	1    7350 11000
	0    -1   -1   0   
$EndComp
$Comp
L PTSA_8 J9
U 1 1 59F01229
P 8650 11000
F 0 "J9" H 8900 10500 60  0000 C CNN
F 1 "PTSA_8" H 9050 11000 60  0000 C CNN
F 2 "Fruits_PCBCons:PTSA_2.5Z_8" H 8550 11150 60  0001 C CNN
F 3 "" H 8550 11150 60  0000 C CNN
	1    8650 11000
	0    -1   -1   0   
$EndComp
Wire Wire Line
	7600 11200 7600 11100
Wire Wire Line
	7000 11200 7900 11200
Connection ~ 7700 11200
Wire Wire Line
	7000 11100 7000 11200
Connection ~ 7600 11200
Wire Wire Line
	7100 11100 7100 11200
Connection ~ 7100 11200
Wire Wire Line
	7200 11100 7200 11200
Connection ~ 7200 11200
Wire Wire Line
	7300 11100 7300 11200
Connection ~ 7300 11200
Wire Wire Line
	7400 11100 7400 11200
Connection ~ 7400 11200
Wire Wire Line
	7500 11100 7500 11200
Connection ~ 7500 11200
Wire Wire Line
	8300 13600 8300 13700
Wire Wire Line
	8400 13150 8400 13700
Wire Wire Line
	8500 13700 8500 12600
Wire Wire Line
	8600 13700 8600 13600
Wire Wire Line
	8700 13700 8700 13150
Wire Wire Line
	8800 13700 8800 12600
Wire Wire Line
	8900 13700 8900 13650
Wire Wire Line
	9000 11100 9000 12550
Wire Wire Line
	5950 17250 6050 17250
Text GLabel 6050 17250 2    60   Input ~ 0
AD_NTC0
Text GLabel 9300 11900 2    60   Input ~ 0
AD_NTC0
Wire Wire Line
	11450 16250 11550 16250
Text GLabel 11550 16250 2    60   Input ~ 0
AD_NTC1
Text GLabel 9300 11800 2    60   Input ~ 0
AD_NTC1
Text GLabel 9300 11700 2    60   Input ~ 0
AD_NTC2
Text GLabel 9300 11600 2    60   Input ~ 0
AD_NTC3
Text GLabel 9300 11500 2    60   Input ~ 0
AD_NTC4
Text GLabel 9300 11400 2    60   Input ~ 0
AD_NTC5
Text GLabel 9300 11300 2    60   Input ~ 0
AD_NTC6
Text GLabel 9800 14550 2    60   Input ~ 0
AD_NTC2
Wire Wire Line
	9700 14550 9800 14550
Text GLabel 9800 17250 2    60   Input ~ 0
AD_NTC4
Wire Wire Line
	9700 17250 9800 17250
Text GLabel 9800 14450 2    60   Input ~ 0
AD_NTC5
Wire Wire Line
	9700 14450 9800 14450
Text GLabel 11550 15950 2    60   Input ~ 0
AD_NTC6
Wire Wire Line
	11450 15950 11550 15950
Wire Wire Line
	7900 11200 7900 11050
Wire Wire Line
	7700 11100 7700 11200
$Comp
L +3.3V #PWR059
U 1 1 59F2354A
P 7900 11050
F 0 "#PWR059" H 7900 10900 50  0001 C CNN
F 1 "+3.3V" H 7900 11190 50  0000 C CNN
F 2 "" H 7900 11050 50  0000 C CNN
F 3 "" H 7900 11050 50  0000 C CNN
	1    7900 11050
	1    0    0    -1  
$EndComp
$Comp
L R R26
U 1 1 59F2811D
P 8300 13300
F 0 "R26" H 8400 13200 60  0000 C CNN
F 1 "10k" H 8300 13400 60  0000 C CNN
F 2 "Fruits_Passivs:0603" H 8300 13300 60  0001 C CNN
F 3 "" H 8300 13300 60  0000 C CNN
	1    8300 13300
	0    1    1    0   
$EndComp
$Comp
L R R27
U 1 1 59F29571
P 8400 12850
F 0 "R27" H 8500 12750 60  0000 C CNN
F 1 "10k" H 8400 12950 60  0000 C CNN
F 2 "Fruits_Passivs:0603" H 8400 12850 60  0001 C CNN
F 3 "" H 8400 12850 60  0000 C CNN
	1    8400 12850
	0    1    1    0   
$EndComp
$Comp
L R R28
U 1 1 59F29756
P 8500 12300
F 0 "R28" H 8600 12200 60  0000 C CNN
F 1 "10k" H 8500 12400 60  0000 C CNN
F 2 "Fruits_Passivs:0603" H 8500 12300 60  0001 C CNN
F 3 "" H 8500 12300 60  0000 C CNN
	1    8500 12300
	0    1    1    0   
$EndComp
$Comp
L R R29
U 1 1 59F2987E
P 8600 13300
F 0 "R29" H 8700 13200 60  0000 C CNN
F 1 "10k" H 8600 13400 60  0000 C CNN
F 2 "Fruits_Passivs:0603" H 8600 13300 60  0001 C CNN
F 3 "" H 8600 13300 60  0000 C CNN
	1    8600 13300
	0    1    1    0   
$EndComp
$Comp
L R R30
U 1 1 59F29A0E
P 8700 12850
F 0 "R30" H 8800 12750 60  0000 C CNN
F 1 "10k" H 8700 12950 60  0000 C CNN
F 2 "Fruits_Passivs:0603" H 8700 12850 60  0001 C CNN
F 3 "" H 8700 12850 60  0000 C CNN
	1    8700 12850
	0    1    1    0   
$EndComp
$Comp
L R R31
U 1 1 59F29B38
P 8800 12300
F 0 "R31" H 8900 12200 60  0000 C CNN
F 1 "10k" H 8800 12400 60  0000 C CNN
F 2 "Fruits_Passivs:0603" H 8800 12300 60  0001 C CNN
F 3 "" H 8800 12300 60  0000 C CNN
	1    8800 12300
	0    1    1    0   
$EndComp
$Comp
L R R32
U 1 1 59F29C65
P 8900 13350
F 0 "R32" H 9000 13250 60  0000 C CNN
F 1 "10k" H 8900 13450 60  0000 C CNN
F 2 "Fruits_Passivs:0603" H 8900 13350 60  0001 C CNN
F 3 "" H 8900 13350 60  0000 C CNN
	1    8900 13350
	0    1    1    0   
$EndComp
Wire Wire Line
	8300 11100 8300 13000
Wire Wire Line
	8400 11100 8400 12550
Wire Wire Line
	8500 11100 8500 12000
Wire Wire Line
	8600 11100 8600 13000
Wire Wire Line
	8700 11100 8700 12550
Wire Wire Line
	8800 11100 8800 12000
Wire Wire Line
	8900 11100 8900 13050
$Comp
L R R33
U 1 1 59F30C10
P 9000 12850
F 0 "R33" H 9100 12750 60  0000 C CNN
F 1 "10k" H 9000 12950 60  0000 C CNN
F 2 "Fruits_Passivs:0603" H 9000 12850 60  0001 C CNN
F 3 "" H 9000 12850 60  0000 C CNN
	1    9000 12850
	0    1    1    0   
$EndComp
Wire Wire Line
	9000 13150 9000 13850
Text GLabel 9300 11200 2    60   Input ~ 0
AD_NTC7
Text GLabel 11550 16150 2    60   Input ~ 0
AD_NTC7
Wire Wire Line
	11450 16150 11550 16150
Wire Wire Line
	8300 13700 9000 13700
Connection ~ 8400 13700
Connection ~ 8500 13700
Connection ~ 8900 13700
Connection ~ 8800 13700
Connection ~ 8600 13700
Connection ~ 8700 13700
Connection ~ 9000 13700
$Comp
L GND #PWR060
U 1 1 59F45AA3
P 9000 13850
F 0 "#PWR060" H 9000 13600 50  0001 C CNN
F 1 "GND" H 9000 13700 50  0000 C CNN
F 2 "" H 9000 13850 50  0000 C CNN
F 3 "" H 9000 13850 50  0000 C CNN
	1    9000 13850
	1    0    0    -1  
$EndComp
Wire Wire Line
	9300 11200 9000 11200
Connection ~ 9000 11200
Wire Wire Line
	8900 11300 9300 11300
Connection ~ 8900 11300
Wire Wire Line
	9300 11400 8800 11400
Connection ~ 8800 11400
Wire Wire Line
	8700 11500 9300 11500
Connection ~ 8700 11500
Wire Wire Line
	8600 11600 9300 11600
Connection ~ 8600 11600
Wire Wire Line
	9300 11700 8500 11700
Connection ~ 8500 11700
Wire Wire Line
	8400 11800 9300 11800
Connection ~ 8400 11800
Wire Wire Line
	8300 11900 9300 11900
Connection ~ 8300 11900
Text GLabel 10350 11350 3    60   Input ~ 0
TXD
Text GLabel 10450 11350 3    60   Input ~ 0
RXD
Text GLabel 10550 11350 3    60   Input ~ 0
SCL
Text GLabel 10650 11350 3    60   Input ~ 0
SDA
Text GLabel 10750 11350 3    60   Input ~ 0
MISO
Text GLabel 10850 11350 3    60   Input ~ 0
MOSI
Text GLabel 10950 11350 3    60   Input ~ 0
SCLK
Text GLabel 11050 11350 3    60   Input ~ 0
_CS_FU
$Comp
L +3.3V #PWR061
U 1 1 59F5AAB9
P 9900 10750
F 0 "#PWR061" H 9900 10600 50  0001 C CNN
F 1 "+3.3V" H 9900 10890 50  0000 C CNN
F 2 "" H 9900 10750 50  0000 C CNN
F 3 "" H 9900 10750 50  0000 C CNN
	1    9900 10750
	1    0    0    -1  
$EndComp
Wire Wire Line
	10150 11450 9900 11450
Wire Wire Line
	9900 11450 9900 10750
$Comp
L C C29
U 1 1 59F68DBB
P 19450 9050
F 0 "C29" H 19550 8900 60  0000 C CNN
F 1 "0.1uF" H 19450 9200 60  0000 C CNN
F 2 "Fruits_Passivs:0805_m" H 19450 9050 60  0001 C CNN
F 3 "" H 19450 9050 60  0000 C CNN
	1    19450 9050
	0    1    1    0   
$EndComp
Wire Wire Line
	19450 8750 19450 8800
Connection ~ 19450 8750
Wire Wire Line
	19450 9300 19450 9350
$Comp
L GND #PWR062
U 1 1 59F6A0D4
P 19450 9350
F 0 "#PWR062" H 19450 9100 50  0001 C CNN
F 1 "GND" H 19450 9200 50  0000 C CNN
F 2 "" H 19450 9350 50  0000 C CNN
F 3 "" H 19450 9350 50  0000 C CNN
	1    19450 9350
	1    0    0    -1  
$EndComp
$Comp
L C C30
U 1 1 59F6ADE3
P 19450 10000
F 0 "C30" H 19550 9850 60  0000 C CNN
F 1 "0.1uF" H 19450 10150 60  0000 C CNN
F 2 "Fruits_Passivs:0805_m" H 19450 10000 60  0001 C CNN
F 3 "" H 19450 10000 60  0000 C CNN
	1    19450 10000
	0    1    1    0   
$EndComp
Wire Wire Line
	19450 9750 19450 9700
Connection ~ 19450 9700
$Comp
L GND #PWR063
U 1 1 59F6BAC1
P 19450 10300
F 0 "#PWR063" H 19450 10050 50  0001 C CNN
F 1 "GND" H 19450 10150 50  0000 C CNN
F 2 "" H 19450 10300 50  0000 C CNN
F 3 "" H 19450 10300 50  0000 C CNN
	1    19450 10300
	1    0    0    -1  
$EndComp
Wire Wire Line
	19450 10250 19450 10300
$Comp
L C C31
U 1 1 59F6CAEE
P 19450 10900
F 0 "C31" H 19550 10750 60  0000 C CNN
F 1 "0.1uF" H 19450 11050 60  0000 C CNN
F 2 "Fruits_Passivs:0805_m" H 19450 10900 60  0001 C CNN
F 3 "" H 19450 10900 60  0000 C CNN
	1    19450 10900
	0    1    1    0   
$EndComp
Wire Wire Line
	19450 10650 19450 10600
Connection ~ 19450 10600
Wire Wire Line
	19450 11150 19450 11200
$Comp
L GND #PWR064
U 1 1 59F6D1F4
P 19450 11200
F 0 "#PWR064" H 19450 10950 50  0001 C CNN
F 1 "GND" H 19450 11050 50  0000 C CNN
F 2 "" H 19450 11200 50  0000 C CNN
F 3 "" H 19450 11200 50  0000 C CNN
	1    19450 11200
	1    0    0    -1  
$EndComp
$Comp
L MICROUSB_B CON1
U 1 1 59F80F9C
P 11800 10750
F 0 "CON1" H 11800 11200 60  0000 C CNN
F 1 "MICROUSB_B" H 11800 10500 60  0000 C CNN
F 2 "Fruits_PCBCons:MICROUSB_B" H 11800 10750 60  0001 C CNN
F 3 "" H 11800 10750 60  0001 C CNN
	1    11800 10750
	0    1    1    0   
$EndComp
Wire Wire Line
	11700 11050 11700 11200
Wire Wire Line
	11800 11050 11800 11450
Wire Wire Line
	11900 11050 11900 11200
Wire Wire Line
	12000 11050 12000 11400
Wire Wire Line
	12100 11050 12100 11250
$Comp
L GND #PWR065
U 1 1 59F874ED
P 12100 11250
F 0 "#PWR065" H 12100 11000 50  0001 C CNN
F 1 "GND" H 12100 11100 50  0000 C CNN
F 2 "" H 12100 11250 50  0000 C CNN
F 3 "" H 12100 11250 50  0000 C CNN
	1    12100 11250
	1    0    0    -1  
$EndComp
$Comp
L GND #PWR066
U 1 1 59F8806A
P 12000 11400
F 0 "#PWR066" H 12000 11150 50  0001 C CNN
F 1 "GND" H 12000 11250 50  0000 C CNN
F 2 "" H 12000 11400 50  0000 C CNN
F 3 "" H 12000 11400 50  0000 C CNN
	1    12000 11400
	1    0    0    -1  
$EndComp
Text GLabel 11700 11200 3    60   Input ~ 0
VBUS
Text GLabel 11800 11450 3    60   Input ~ 0
D-
Text GLabel 11900 11200 3    60   Input ~ 0
D+
$Comp
L GND #PWR067
U 1 1 59F8FAAC
P 10250 11350
F 0 "#PWR067" H 10250 11100 50  0001 C CNN
F 1 "GND" H 10250 11200 50  0000 C CNN
F 2 "" H 10250 11350 50  0000 C CNN
F 3 "" H 10250 11350 50  0000 C CNN
	1    10250 11350
	1    0    0    -1  
$EndComp
$Comp
L LDO IC11
U 1 1 59F92A11
P 16250 11350
F 0 "IC11" H 16250 11100 60  0000 C CNN
F 1 "LDO" H 16250 11600 60  0000 C CNN
F 2 "Fruits_ICs:SOT-223" H 16050 11300 60  0001 C CNN
F 3 "" H 16050 11300 60  0000 C CNN
	1    16250 11350
	1    0    0    -1  
$EndComp
Wire Wire Line
	16050 11350 15900 11350
Wire Wire Line
	15900 11350 15900 11050
$Comp
L +3.3V #PWR068
U 1 1 59F95998
P 15900 11050
F 0 "#PWR068" H 15900 10900 50  0001 C CNN
F 1 "+3.3V" H 15900 11190 50  0000 C CNN
F 2 "" H 15900 11050 50  0000 C CNN
F 3 "" H 15900 11050 50  0000 C CNN
	1    15900 11050
	1    0    0    -1  
$EndComp
$Comp
L GND #PWR069
U 1 1 59F96EC1
P 15900 11600
F 0 "#PWR069" H 15900 11350 50  0001 C CNN
F 1 "GND" H 15900 11450 50  0000 C CNN
F 2 "" H 15900 11600 50  0000 C CNN
F 3 "" H 15900 11600 50  0000 C CNN
	1    15900 11600
	1    0    0    -1  
$EndComp
Wire Wire Line
	16050 11450 15900 11450
Wire Wire Line
	15900 11450 15900 11600
Text Label 15450 11250 0    60   ~ 0
+5V
Wire Wire Line
	13250 16350 13800 16350
$Comp
L R R36
U 1 1 59F9E87A
P 13800 17000
F 0 "R36" H 13900 16900 60  0000 C CNN
F 1 "5k62" H 13800 17100 60  0000 C CNN
F 2 "Fruits_Passivs:0805_m" H 13800 17000 60  0001 C CNN
F 3 "" H 13800 17000 60  0000 C CNN
	1    13800 17000
	0    1    1    0   
$EndComp
Text Label 13500 16350 3    60   ~ 0
VBG
Wire Wire Line
	13800 16350 13800 16700
$Comp
L C C33
U 1 1 59FA36CD
P 14100 16950
F 0 "C33" H 14200 16800 60  0000 C CNN
F 1 "10pF" H 14100 17100 60  0000 C CNN
F 2 "Fruits_Passivs:0805_m" H 14100 16950 60  0001 C CNN
F 3 "" H 14100 16950 60  0000 C CNN
	1    14100 16950
	0    1    1    0   
$EndComp
Wire Wire Line
	13800 16600 14100 16600
Wire Wire Line
	14100 16600 14100 16700
Connection ~ 13800 16600
Wire Wire Line
	14100 17350 14100 17200
Wire Wire Line
	13800 17350 14100 17350
Wire Wire Line
	13950 17350 13950 17650
Wire Wire Line
	13800 17300 13800 17300
Wire Wire Line
	13800 17300 13800 17350
Connection ~ 13950 17350
$Comp
L GND #PWR070
U 1 1 59FA54B6
P 13950 17650
F 0 "#PWR070" H 13950 17400 50  0001 C CNN
F 1 "GND" H 13950 17500 50  0000 C CNN
F 2 "" H 13950 17650 50  0000 C CNN
F 3 "" H 13950 17650 50  0000 C CNN
	1    13950 17650
	1    0    0    -1  
$EndComp
Text Notes 13950 17550 0    60   ~ 0
GNDUTMI
Wire Wire Line
	9700 16850 10400 16850
Text Label 9800 16850 0    60   ~ 0
VBUS_DETECT
Wire Wire Line
	10400 16850 10400 17700
$Comp
L R R34
U 1 1 59FAF4A1
P 10400 18000
F 0 "R34" H 10500 17900 60  0000 C CNN
F 1 "22k" H 10400 18100 60  0000 C CNN
F 2 "Fruits_Passivs:0805_m" H 10400 18000 60  0001 C CNN
F 3 "" H 10400 18000 60  0000 C CNN
	1    10400 18000
	0    1    1    0   
$EndComp
Wire Wire Line
	10400 18300 10400 18400
$Comp
L GND #PWR071
U 1 1 59FB0123
P 10400 18400
F 0 "#PWR071" H 10400 18150 50  0001 C CNN
F 1 "GND" H 10400 18250 50  0000 C CNN
F 2 "" H 10400 18400 50  0000 C CNN
F 3 "" H 10400 18400 50  0000 C CNN
	1    10400 18400
	1    0    0    -1  
$EndComp
$Comp
L R R35
U 1 1 59FB0269
P 11000 17600
F 0 "R35" H 11100 17500 60  0000 C CNN
F 1 "15k" H 11000 17700 60  0000 C CNN
F 2 "Fruits_Passivs:0805_m" H 11000 17600 60  0001 C CNN
F 3 "" H 11000 17600 60  0000 C CNN
	1    11000 17600
	-1   0    0    1   
$EndComp
Text GLabel 11450 17600 2    60   Input ~ 0
VBUS
Wire Wire Line
	10700 17600 10400 17600
Connection ~ 10400 17600
Wire Wire Line
	11300 17600 11450 17600
Wire Wire Line
	11400 17600 11400 17700
Connection ~ 11400 17600
$Comp
L C C32
U 1 1 59FB666B
P 11400 17950
F 0 "C32" H 11500 17800 60  0000 C CNN
F 1 "1-10uF_tbd" H 11400 18100 60  0000 C CNN
F 2 "Fruits_Passivs:0805_m" H 11400 17950 60  0001 C CNN
F 3 "" H 11400 17950 60  0000 C CNN
	1    11400 17950
	0    1    1    0   
$EndComp
Wire Wire Line
	11400 18200 11400 18400
$Comp
L GND #PWR072
U 1 1 59FB6FE0
P 11400 18400
F 0 "#PWR072" H 11400 18150 50  0001 C CNN
F 1 "GND" H 11400 18250 50  0000 C CNN
F 2 "" H 11400 18400 50  0000 C CNN
F 3 "" H 11400 18400 50  0000 C CNN
	1    11400 18400
	1    0    0    -1  
$EndComp
Wire Wire Line
	13250 16150 13300 16150
Wire Wire Line
	13250 16250 13300 16250
Text Label 13300 16150 0    60   ~ 0
D-
Text Label 13300 16250 0    60   ~ 0
D+
$Comp
L Konnektor_10 J10
U 1 1 59FC8B80
P 4200 11050
F 0 "J10" H 4200 10450 60  0000 C CNN
F 1 "Konnektor_10" H 4200 11650 60  0000 C CNN
F 2 "Fruits_PCBCons:SMD_Header_2x5" H 4200 10550 60  0001 C CNN
F 3 "" H 4200 10550 60  0000 C CNN
	1    4200 11050
	0    -1   -1   0   
$EndComp
Wire Wire Line
	3750 11050 3750 11150
Wire Wire Line
	3750 11150 3450 11150
Wire Wire Line
	3450 11150 3450 10900
$Comp
L +3.3V #PWR073
U 1 1 59FCB46A
P 3450 10900
F 0 "#PWR073" H 3450 10750 50  0001 C CNN
F 1 "+3.3V" H 3450 11040 50  0000 C CNN
F 2 "" H 3450 10900 50  0000 C CNN
F 3 "" H 3450 10900 50  0000 C CNN
	1    3450 10900
	1    0    0    -1  
$EndComp
Wire Wire Line
	3850 11050 3850 11150
Wire Wire Line
	3950 11050 3950 11550
Wire Wire Line
	4050 11050 4050 11150
Wire Wire Line
	4150 11050 4150 11700
Wire Wire Line
	4250 11050 4250 11150
Wire Wire Line
	4650 11050 4650 11150
Text GLabel 3850 11150 3    60   Input ~ 0
SWDIO
Text GLabel 4050 11150 3    60   Input ~ 0
SWCLK
Text GLabel 4250 11150 3    60   Input ~ 0
TRACESWO
NoConn ~ 4350 11050
NoConn ~ 4450 11050
NoConn ~ 4550 11050
Text GLabel 4650 11150 3    60   Input ~ 0
RST
$Comp
L GND #PWR074
U 1 1 59FD1EEE
P 3950 11550
F 0 "#PWR074" H 3950 11300 50  0001 C CNN
F 1 "GND" H 3950 11400 50  0000 C CNN
F 2 "" H 3950 11550 50  0000 C CNN
F 3 "" H 3950 11550 50  0000 C CNN
	1    3950 11550
	1    0    0    -1  
$EndComp
$Comp
L GND #PWR075
U 1 1 59FD254D
P 4150 11700
F 0 "#PWR075" H 4150 11450 50  0001 C CNN
F 1 "GND" H 4150 11550 50  0000 C CNN
F 2 "" H 4150 11700 50  0000 C CNN
F 3 "" H 4150 11700 50  0000 C CNN
	1    4150 11700
	1    0    0    -1  
$EndComp
Wire Wire Line
	13250 16650 13350 16650
Text GLabel 13350 16650 2    60   Input ~ 0
RST
Wire Wire Line
	11450 14950 11550 14950
Wire Wire Line
	11450 15050 11550 15050
Text GLabel 11550 14950 2    60   Input ~ 0
XIN32
Text GLabel 11550 15050 2    60   Input ~ 0
XOUT32
Wire Wire Line
	9700 14850 9800 14850
Wire Wire Line
	9700 14950 9800 14950
Text GLabel 9800 14850 2    60   Input ~ 0
SWDIO
Text GLabel 9800 14950 2    60   Input ~ 0
SWCLK
Wire Wire Line
	9700 15050 9800 15050
Wire Wire Line
	9700 15150 9800 15150
Text GLabel 9800 15050 2    60   Input ~ 0
XOUT
Text GLabel 9800 15150 2    60   Input ~ 0
XIN
Wire Wire Line
	9700 15450 9800 15450
Text GLabel 9800 15450 2    60   Input ~ 0
ERASE
Wire Wire Line
	9700 14750 9800 14750
Text GLabel 9800 14750 2    60   Input ~ 0
TRACESWO
$Comp
L Crystal X1
U 1 1 59FF4EBA
P 11250 12750
F 0 "X1" H 11250 12550 60  0000 C CNN
F 1 "32kHz" H 11250 12950 60  0000 C CNN
F 2 "Fruits_Passivs:2-SMD" H 11250 12750 60  0001 C CNN
F 3 "" H 11250 12750 60  0000 C CNN
	1    11250 12750
	1    0    0    -1  
$EndComp
$Comp
L Crystal X2
U 1 1 59FF5088
P 12350 12750
F 0 "X2" H 12350 12550 60  0000 C CNN
F 1 "16MHz" H 12350 12950 60  0000 C CNN
F 2 "Fruits_Passivs:2-SMD" H 12350 12750 60  0001 C CNN
F 3 "" H 12350 12750 60  0000 C CNN
	1    12350 12750
	1    0    0    -1  
$EndComp
Wire Wire Line
	10850 12500 10850 13000
Wire Wire Line
	11650 12500 11650 13000
Wire Wire Line
	11950 12500 11950 13000
Wire Wire Line
	12750 12500 12750 13000
Wire Wire Line
	11550 12750 11650 12750
Connection ~ 11650 12750
Wire Wire Line
	10950 12750 10850 12750
Connection ~ 10850 12750
Wire Wire Line
	11950 12750 12050 12750
Connection ~ 11950 12750
Wire Wire Line
	12650 12750 12750 12750
Connection ~ 12750 12750
Text GLabel 10850 12500 1    60   Input ~ 0
XIN32
Text GLabel 11650 12500 1    60   Input ~ 0
XOUT32
Text GLabel 11950 12500 1    60   Input ~ 0
XIN
Text GLabel 12750 12500 1    60   Input ~ 0
XOUT
$Comp
L Taster P1
U 1 1 5A000CF8
P 14550 12600
F 0 "P1" H 14550 12450 60  0000 C CNN
F 1 "Taster" H 14550 12800 60  0000 C CNN
F 2 "Fruits_Passivs:4.5mmSwitch" H 14700 12550 60  0001 C CNN
F 3 "" H 14700 12550 60  0000 C CNN
	1    14550 12600
	1    0    0    -1  
$EndComp
Wire Wire Line
	14000 12300 14000 12750
Wire Wire Line
	13850 12550 14100 12550
Wire Wire Line
	14000 12650 14100 12650
Connection ~ 14000 12550
$Comp
L +3.3V #PWR076
U 1 1 5A005352
P 14000 12300
F 0 "#PWR076" H 14000 12150 50  0001 C CNN
F 1 "+3.3V" H 14000 12440 50  0000 C CNN
F 2 "" H 14000 12300 50  0000 C CNN
F 3 "" H 14000 12300 50  0000 C CNN
	1    14000 12300
	1    0    0    -1  
$EndComp
Connection ~ 14000 12650
$Comp
L GND #PWR077
U 1 1 5A0073CC
P 14000 13350
F 0 "#PWR077" H 14000 13100 50  0001 C CNN
F 1 "GND" H 14000 13200 50  0000 C CNN
F 2 "" H 14000 13350 50  0000 C CNN
F 3 "" H 14000 13350 50  0000 C CNN
	1    14000 13350
	1    0    0    -1  
$EndComp
$Comp
L C C34
U 1 1 5A007F1D
P 14000 13000
F 0 "C34" H 14100 12850 60  0000 C CNN
F 1 "10uF" H 14000 13150 60  0000 C CNN
F 2 "Fruits_Passivs:0805_m" H 14000 13000 60  0001 C CNN
F 3 "" H 14000 13000 60  0000 C CNN
	1    14000 13000
	0    1    1    0   
$EndComp
Wire Wire Line
	14000 13250 14000 13350
Wire Wire Line
	15000 12550 15100 12550
Wire Wire Line
	15100 12550 15100 12750
Wire Wire Line
	15000 12650 15100 12650
Connection ~ 15100 12650
$Comp
L R R37
U 1 1 5A00AD73
P 15100 13050
F 0 "R37" H 15200 12950 60  0000 C CNN
F 1 "10k" H 15100 13150 60  0000 C CNN
F 2 "Fruits_Passivs:0805_m" H 15100 13050 60  0001 C CNN
F 3 "" H 15100 13050 60  0000 C CNN
	1    15100 13050
	0    1    1    0   
$EndComp
Wire Wire Line
	15100 13350 15100 13450
$Comp
L GND #PWR078
U 1 1 5A00B306
P 15100 13450
F 0 "#PWR078" H 15100 13200 50  0001 C CNN
F 1 "GND" H 15100 13300 50  0000 C CNN
F 2 "" H 15100 13450 50  0000 C CNN
F 3 "" H 15100 13450 50  0000 C CNN
	1    15100 13450
	1    0    0    -1  
$EndComp
$Comp
L R R38
U 1 1 5A01D41E
P 13550 12550
F 0 "R38" H 13650 12450 60  0000 C CNN
F 1 "10k" H 13550 12650 60  0000 C CNN
F 2 "Fruits_Passivs:0805_m" H 13550 12550 60  0001 C CNN
F 3 "" H 13550 12550 60  0000 C CNN
	1    13550 12550
	-1   0    0    1   
$EndComp
Wire Wire Line
	13250 12550 13150 12550
Text GLabel 13150 12550 0    60   Input ~ 0
RST
$Comp
L C C35
U 1 1 5A022BF2
P 10850 13250
F 0 "C35" H 10950 13100 60  0000 C CNN
F 1 "12pF" H 10850 13400 60  0000 C CNN
F 2 "Fruits_Passivs:0805_m" H 10850 13250 60  0001 C CNN
F 3 "" H 10850 13250 60  0000 C CNN
	1    10850 13250
	0    1    1    0   
$EndComp
$Comp
L C C36
U 1 1 5A0242E6
P 11650 13250
F 0 "C36" H 11750 13100 60  0000 C CNN
F 1 "12pF" H 11650 13400 60  0000 C CNN
F 2 "Fruits_Passivs:0805_m" H 11650 13250 60  0001 C CNN
F 3 "" H 11650 13250 60  0000 C CNN
	1    11650 13250
	0    1    1    0   
$EndComp
$Comp
L C C37
U 1 1 5A02455C
P 11950 13250
F 0 "C37" H 12050 13100 60  0000 C CNN
F 1 "15pF" H 11950 13400 60  0000 C CNN
F 2 "Fruits_Passivs:0805_m" H 11950 13250 60  0001 C CNN
F 3 "" H 11950 13250 60  0000 C CNN
	1    11950 13250
	0    1    1    0   
$EndComp
$Comp
L C C38
U 1 1 5A0248B6
P 12750 13250
F 0 "C38" H 12850 13100 60  0000 C CNN
F 1 "15pF" H 12750 13400 60  0000 C CNN
F 2 "Fruits_Passivs:0805_m" H 12750 13250 60  0001 C CNN
F 3 "" H 12750 13250 60  0000 C CNN
	1    12750 13250
	0    1    1    0   
$EndComp
Wire Wire Line
	10850 13500 10850 13600
Wire Wire Line
	11650 13500 11650 13600
Wire Wire Line
	11950 13500 11950 13600
Wire Wire Line
	12750 13500 12750 13600
$Comp
L GND #PWR079
U 1 1 5A02670C
P 12750 13600
F 0 "#PWR079" H 12750 13350 50  0001 C CNN
F 1 "GND" H 12750 13450 50  0000 C CNN
F 2 "" H 12750 13600 50  0000 C CNN
F 3 "" H 12750 13600 50  0000 C CNN
	1    12750 13600
	1    0    0    -1  
$EndComp
$Comp
L GND #PWR080
U 1 1 5A026879
P 11950 13600
F 0 "#PWR080" H 11950 13350 50  0001 C CNN
F 1 "GND" H 11950 13450 50  0000 C CNN
F 2 "" H 11950 13600 50  0000 C CNN
F 3 "" H 11950 13600 50  0000 C CNN
	1    11950 13600
	1    0    0    -1  
$EndComp
$Comp
L GND #PWR081
U 1 1 5A0269E6
P 11650 13600
F 0 "#PWR081" H 11650 13350 50  0001 C CNN
F 1 "GND" H 11650 13450 50  0000 C CNN
F 2 "" H 11650 13600 50  0000 C CNN
F 3 "" H 11650 13600 50  0000 C CNN
	1    11650 13600
	1    0    0    -1  
$EndComp
$Comp
L GND #PWR082
U 1 1 5A026B53
P 10850 13600
F 0 "#PWR082" H 10850 13350 50  0001 C CNN
F 1 "GND" H 10850 13450 50  0000 C CNN
F 2 "" H 10850 13600 50  0000 C CNN
F 3 "" H 10850 13600 50  0000 C CNN
	1    10850 13600
	1    0    0    -1  
$EndComp
Text Label 14650 15350 2    60   ~ 0
VDDCORE
Wire Wire Line
	28050 7100 29050 7100
Wire Wire Line
	29050 7100 29050 7950
Connection ~ 28050 7100
Wire Wire Line
	29050 9700 29050 8450
Wire Wire Line
	28050 10600 28950 10600
Wire Wire Line
	28950 10600 28950 11550
Connection ~ 28050 10600
Wire Wire Line
	28950 13250 28950 12050
Wire Wire Line
	28050 14150 28900 14150
Wire Wire Line
	28900 14150 28900 15100
Connection ~ 28050 14150
Wire Wire Line
	28900 16800 28900 15600
$Comp
L C+ C41
U 1 1 59F81005
P 29050 8200
F 0 "C41" H 29150 8050 60  0000 C CNN
F 1 "C+" H 29050 8350 60  0000 C CNN
F 2 "Fruits_Passivs:C_snap_D25_L45_TH10" H 29050 8200 60  0001 C CNN
F 3 "" H 29050 8200 60  0000 C CNN
	1    29050 8200
	0    1    1    0   
$EndComp
$Comp
L C+ C40
U 1 1 59F81EF3
P 28950 11800
F 0 "C40" H 29050 11650 60  0000 C CNN
F 1 "C+" H 28950 11950 60  0000 C CNN
F 2 "Fruits_Passivs:C_snap_D25_L45_TH10" H 28950 11800 60  0001 C CNN
F 3 "" H 28950 11800 60  0000 C CNN
	1    28950 11800
	0    1    1    0   
$EndComp
$Comp
L C+ C39
U 1 1 59F82D77
P 28900 15350
F 0 "C39" H 29000 15200 60  0000 C CNN
F 1 "C+" H 28900 15500 60  0000 C CNN
F 2 "Fruits_Passivs:C_snap_D25_L45_TH10" H 28900 15350 60  0001 C CNN
F 3 "" H 28900 15350 60  0000 C CNN
	1    28900 15350
	0    1    1    0   
$EndComp
$Comp
L C+ C42
U 1 1 59F8A380
P 21400 7450
F 0 "C42" H 21500 7300 60  0000 C CNN
F 1 "C+" H 21400 7600 60  0000 C CNN
F 2 "Fruits_Passivs:RadialCan_E7" H 21400 7450 60  0001 C CNN
F 3 "" H 21400 7450 60  0000 C CNN
	1    21400 7450
	0    1    1    0   
$EndComp
Wire Wire Line
	21000 7150 21400 7150
Wire Wire Line
	21400 7150 21400 7200
Connection ~ 21000 7150
Wire Wire Line
	21000 7750 21400 7750
Wire Wire Line
	21400 7750 21400 7700
Connection ~ 21000 7750
Wire Wire Line
	9700 17350 9800 17350
Text GLabel 9800 17350 2    60   Input ~ 0
AD_NTC3
$Comp
L Konnektor_10 J11
U 1 1 59FA18B3
P 5700 11050
F 0 "J11" H 5700 10450 60  0000 C CNN
F 1 "Konnektor_10" H 5700 11650 60  0000 C CNN
F 2 "Fruits_PCBCons:SMD_Header_2x5" H 5700 10550 60  0001 C CNN
F 3 "" H 5700 10550 60  0000 C CNN
	1    5700 11050
	0    -1   -1   0   
$EndComp
Text GLabel 5250 11150 3    60   Input ~ 0
SWDIO
$Comp
L +3.3V #PWR083
U 1 1 59FA29FC
P 4950 10850
F 0 "#PWR083" H 4950 10700 50  0001 C CNN
F 1 "+3.3V" H 4950 10990 50  0000 C CNN
F 2 "" H 4950 10850 50  0000 C CNN
F 3 "" H 4950 10850 50  0000 C CNN
	1    4950 10850
	1    0    0    -1  
$EndComp
$Comp
L GND #PWR084
U 1 1 59FA2B78
P 5550 11650
F 0 "#PWR084" H 5550 11400 50  0001 C CNN
F 1 "GND" H 5550 11500 50  0000 C CNN
F 2 "" H 5550 11650 50  0000 C CNN
F 3 "" H 5550 11650 50  0000 C CNN
	1    5550 11650
	1    0    0    -1  
$EndComp
Text GLabel 5450 11150 3    60   Input ~ 0
SWCLK
$Comp
L GND #PWR085
U 1 1 59FA2E67
P 5750 11650
F 0 "#PWR085" H 5750 11400 50  0001 C CNN
F 1 "GND" H 5750 11500 50  0000 C CNN
F 2 "" H 5750 11650 50  0000 C CNN
F 3 "" H 5750 11650 50  0000 C CNN
	1    5750 11650
	1    0    0    -1  
$EndComp
Text GLabel 5650 11150 3    60   Input ~ 0
TRACESWO
Text GLabel 6050 11150 3    60   Input ~ 0
RST
NoConn ~ 5850 11050
NoConn ~ 5950 11050
NoConn ~ 6150 11050
Wire Wire Line
	5250 11050 5250 11150
Wire Wire Line
	5350 11050 5350 11100
Wire Wire Line
	5350 11100 4950 11100
Wire Wire Line
	4950 11100 4950 10850
Wire Wire Line
	5450 11050 5450 11150
Wire Wire Line
	5550 11050 5550 11650
Wire Wire Line
	5650 11050 5650 11150
Wire Wire Line
	5750 11050 5750 11650
Wire Wire Line
	6050 11050 6050 11150
$EndSCHEMATC
