G04 #@! TF.FileFunction,Paste,Bot*
%FSLAX45Y45*%
G04 Gerber Fmt 4.5, Leading zero omitted, Abs format (unit mm)*
G04 Created by KiCad (PCBNEW 4.0.2+dfsg1-stable) date Tue 21 May 2019 05:41:05 PM CAT*
%MOMM*%
G01*
G04 APERTURE LIST*
%ADD10C,0.100000*%
%ADD11R,1.400000X3.000000*%
G04 APERTURE END LIST*
D10*
D11*
X3295500Y2353300D03*
X3895500Y2353300D03*
X3244700Y6658600D03*
X3844700Y6658600D03*
X3291700Y12348200D03*
X3891700Y12348200D03*
X3295500Y2759700D03*
X3895500Y2759700D03*
X3244700Y7065000D03*
X3844700Y7065000D03*
X3291700Y11941800D03*
X3891700Y11941800D03*
X3295500Y1946900D03*
X3895500Y1946900D03*
X3244700Y7471400D03*
X3844700Y7471400D03*
X3291700Y11535400D03*
X3891700Y11535400D03*
M02*
